FPU_32_FMA/dump.vcd
$date
	Mon Dec  4 16:42:15 2023
$end
$version
	Icarus Verilog
$end
$timescale
	1s
$end
$scope module FPU_32_testbench $end
$scope module uut $end
$var wire 32 ! a [31:0] $end
$var wire 32 " b [31:0] $end
$var wire 1 # clk $end
$var wire 3 $ mode [2:0] $end
$var wire 1 % rst $end
$var wire 1 & sub $end
$var wire 32 ' result_div [31:0] $end
$var wire 32 ( result_FMA [31:0] $end
$var wire 32 ) result [31:0] $end
$var wire 32 * real_c [31:0] $end
$var wire 32 + real_b [31:0] $end
$var wire 1 , mul $end
$var wire 1 - gated_clk_div $end
$var wire 1 . gated_clk_FMA $end
$var wire 6 / flag [5:0] $end
$var wire 1 0 div $end
$var wire 1 1 add $end
$var reg 3 2 mode_reg [2:0] $end
$scope module FMA_32 $end
$var wire 32 3 a [31:0] $end
$var wire 75 4 add_result_copy [74:0] $end
$var wire 32 5 b [31:0] $end
$var wire 32 6 c [31:0] $end
$var wire 75 7 final_result [74:0] $end
$var wire 1 8 final_sign $end
$var wire 1 9 result_head_is_zero $end
$var wire 9 : true_exp_c_minus_ab_signed [8:0] $end
$var wire 9 ; true_exp_ab_signed [8:0] $end
$var wire 1 < sticky $end
$var wire 1 = sign_of_add $end
$var wire 1 > sign_c $end
$var wire 1 ? sign_b $end
$var wire 1 @ sign_a $end
$var wire 1 A shift_l_27 $end
$var wire 8 B shift [7:0] $end
$var wire 24 C rounded_man [23:0] $end
$var wire 1 D round $end
$var wire 32 E result_wire [31:0] $end
$var wire 48 F mul_a_b [47:0] $end
$var wire 8 G max_shift [7:0] $end
$var wire 24 H man_c [23:0] $end
$var wire 24 I man_b [23:0] $end
$var wire 24 J man_a [23:0] $end
$var wire 1 K guard $end
$var wire 9 L final_exponent_tmp [8:0] $end
$var wire 9 M final_exponent [8:0] $end
$var wire 74 N ext_mul_ab [73:0] $end
$var wire 74 O ext_man_c_tmp [73:0] $end
$var wire 74 P ext_man_c [73:0] $end
$var wire 8 Q exp_minus_from_copy [7:0] $end
$var wire 1 R exp_is_n126 $end
$var wire 9 S exp_comple [8:0] $end
$var wire 8 T exp_c [7:0] $end
$var wire 8 U exp_b [7:0] $end
$var wire 8 V exp_add_first [7:0] $end
$var wire 1 W exp_add $end
$var wire 8 X exp_a [7:0] $end
$var wire 9 Y comple_exp_c [8:0] $end
$var wire 1 Z close_to_zero $end
$var wire 1 . clk $end
$var wire 75 [ add_result_shifted [74:0] $end
$var wire 75 \ add_result_copy_shifted [74:0] $end
$var wire 75 ] add_result [74:0] $end
$var wire 24 ^ add_man [23:0] $end
$var reg 32 _ result [31:0] $end
$scope module adder_76 $end
$var wire 74 ` a [73:0] $end
$var wire 74 a b [73:0] $end
$var wire 1 = sign $end
$var wire 75 b result [74:0] $end
$var wire 76 c b_ext [75:0] $end
$var wire 76 d add_result [75:0] $end
$var wire 1 > add_or_sub $end
$var wire 1 e abs_a_h_b $end
$var wire 76 f a_ext [75:0] $end
$upscope $end
$scope module ex_a $end
$var wire 32 g a [31:0] $end
$var wire 1 @ sign $end
$var wire 24 h man [23:0] $end
$var wire 8 i exp [7:0] $end
$upscope $end
$scope module ex_b $end
$var wire 32 j a [31:0] $end
$var wire 1 ? sign $end
$var wire 24 k man [23:0] $end
$var wire 8 l exp [7:0] $end
$upscope $end
$scope module ex_c $end
$var wire 32 m a [31:0] $end
$var wire 1 > sign $end
$var wire 24 n man [23:0] $end
$var wire 8 o exp [7:0] $end
$upscope $end
$scope module m_n_gen2 $end
$var wire 75 p data [74:0] $end
$var wire 8 q max_shift [7:0] $end
$var wire 8 r shift [7:0] $end
$var wire 8 s shift_tmp [7:0] $end
$var wire 75 t outdata [74:0] $end
$var wire 1 u bigger_than_max $end
$upscope $end
$scope module mn_gen $end
$var wire 75 v data [74:0] $end
$var wire 8 w shift_tmp [7:0] $end
$var wire 8 x shift [7:0] $end
$var wire 75 y outdata [74:0] $end
$upscope $end
$scope module mul $end
$var wire 24 z a [23:0] $end
$var wire 24 { b [23:0] $end
$var wire 48 | result [47:0] $end
$upscope $end
$scope module preprocessing $end
$var wire 9 } data_126 [8:0] $end
$var wire 9 ~ data_127 [8:0] $end
$var wire 8 !" exp_a [7:0] $end
$var wire 8 "" exp_b [7:0] $end
$var wire 8 #" exp_c [7:0] $end
$var wire 9 $" true_exp_c_minus_ab_signed [8:0] $end
$var wire 9 %" true_exp_ab_signed [8:0] $end
$var wire 9 &" true_c [8:0] $end
$var wire 9 '" true_b [8:0] $end
$var wire 9 (" true_a [8:0] $end
$upscope $end
$scope module rounding $end
$var wire 1 W exp_add $end
$var wire 1 K guard $end
$var wire 1 )" halfway $end
$var wire 1 *" increment $end
$var wire 24 +" man [23:0] $end
$var wire 1 D round $end
$var wire 1 < sticky $end
$var wire 24 ," rounded_man [23:0] $end
$var wire 24 -" new_man [23:0] $end
$var wire 1 ." lsb $end
$upscope $end
$upscope $end
$scope module SRT_divider_FP32 $end
$var wire 32 /" dividend [31:0] $end
$var wire 32 0" divisor [31:0] $end
$var wire 1 % rst $end
$var wire 1 1" sticky $end
$var wire 1 2" round $end
$var wire 1 3" result_sign $end
$var wire 24 4" result_before_ieee [23:0] $end
$var wire 5 5" r_idx [4:0] $end
$var wire 32 6" quotient [31:0] $end
$var wire 24 7" q_rounding [23:0] $end
$var wire 26 8" next_remainder [25:0] $end
$var wire 3 9" mid_quotient [2:0] $end
$var wire 1 :" guard $end
$var wire 6 ;" flag_1 [5:0] $end
$var wire 5 <" final_shift [4:0] $end
$var wire 1 =" exp_add $end
$var wire 5 >" divisor_shift [4:0] $end
$var wire 24 ?" divisor_mantissa_normalized [23:0] $end
$var wire 5 @" dividend_shift [4:0] $end
$var wire 24 A" dividend_mantissa_normalized [23:0] $end
$var wire 5 B" d_idx [4:0] $end
$var wire 26 C" current_q_d [25:0] $end
$var wire 8 D" current_exponent [7:0] $end
$var wire 26 E" current_divisor [25:0] $end
$var wire 26 F" current_dividend [25:0] $end
$var wire 5 G" compl_divisor_shift [4:0] $end
$var wire 5 H" compl_dividend_shift [4:0] $end
$var wire 1 - clk $end
$var wire 28 I" Q_pos_next [27:0] $end
$var wire 28 J" Q_neg_next [27:0] $end
$var reg 28 K" Q_neg [27:0] $end
$var reg 28 L" Q_pos [27:0] $end
$var reg 26 M" current_remainder [25:0] $end
$var reg 6 N" flag [5:0] $end
$var reg 1 O" right_shift $end
$scope module dut $end
$var wire 24 P" result [23:0] $end
$var wire 1 O" right_shift $end
$var wire 5 Q" shift_nums [4:0] $end
$var wire 1 3" resultsign $end
$var wire 24 R" result_temp [23:0] $end
$var wire 24 S" result_shifted [23:0] $end
$var wire 32 T" quotient [31:0] $end
$var wire 8 U" exponent_final [7:0] $end
$var wire 5 V" exponent_addend [4:0] $end
$var wire 1 =" exp_add $end
$var wire 8 W" current_exponent [7:0] $end
$var wire 8 X" addend_copmplement [7:0] $end
$scope module mngen $end
$var wire 24 Y" data [23:0] $end
$var wire 5 Z" shift [4:0] $end
$var wire 24 [" outdata [23:0] $end
$upscope $end
$upscope $end
$scope module next_remainder_gen1 $end
$var wire 26 \" current_remainder [25:0] $end
$var wire 26 ]" next_remainder_before_shift [25:0] $end
$var wire 26 ^" next_remainder [25:0] $end
$var wire 3 _" mid_quotient [2:0] $end
$var wire 26 `" current_q_d [25:0] $end
$upscope $end
$scope module norm $end
$var wire 32 a" dividend [31:0] $end
$var wire 32 b" divisor [31:0] $end
$var wire 1 3" result_sign $end
$var wire 5 c" divisor_shift [4:0] $end
$var wire 24 d" divisor_mantissa_normalized [23:0] $end
$var wire 5 e" dividend_shift [4:0] $end
$var wire 24 f" dividend_mantissa_normalized [23:0] $end
$var wire 8 g" current_exponent [7:0] $end
$scope module exp $end
$var wire 32 h" dividend [31:0] $end
$var wire 32 i" divisor [31:0] $end
$var wire 9 j" extra_bias [8:0] $end
$var wire 9 k" result_tmp2 [8:0] $end
$var wire 9 l" result_tmp [8:0] $end
$var wire 8 m" result_exp [7:0] $end
$var wire 8 n" exp_divisor [7:0] $end
$var wire 8 o" exp_dividend [7:0] $end
$var wire 9 p" divisor_sign [8:0] $end
$var wire 9 q" divisor_comple [8:0] $end
$var wire 9 r" dividend_sign [8:0] $end
$var wire 1 s" cout2 $end
$var wire 1 t" cout $end
$var wire 9 u" bias [8:0] $end
$scope module adder $end
$var wire 9 v" a [8:0] $end
$var wire 9 w" b [8:0] $end
$var wire 9 x" sum [8:0] $end
$var wire 1 t" cout $end
$upscope $end
$scope module adder2 $end
$var wire 9 y" a [8:0] $end
$var wire 9 z" b [8:0] $end
$var wire 9 {" sum [8:0] $end
$var wire 1 s" cout $end
$upscope $end
$upscope $end
$scope module mfm $end
$var wire 32 |" dividend [31:0] $end
$var wire 32 }" divisor [31:0] $end
$var wire 1 3" result_sign $end
$var wire 24 ~" divisor_tmp [23:0] $end
$var wire 1 !# divisor_sign $end
$var wire 5 "# divisor_shift [4:0] $end
$var wire 24 ## divisor_mantissa_normalized [23:0] $end
$var wire 23 $# divisor_mantissa [22:0] $end
$var wire 8 %# divisor_exponent [7:0] $end
$var wire 24 &# dividend_tmp [23:0] $end
$var wire 1 '# dividend_sign $end
$var wire 5 (# dividend_shift [4:0] $end
$var wire 24 )# dividend_mantissa_normalized [23:0] $end
$var wire 23 *# dividend_mantissa [22:0] $end
$var wire 8 +# dividend_exponent [7:0] $end
$scope module mng $end
$var wire 24 ,# data [23:0] $end
$var wire 5 -# shift [4:0] $end
$var wire 24 .# outdata [23:0] $end
$upscope $end
$scope module mng2 $end
$var wire 24 /# data [23:0] $end
$var wire 5 0# shift [4:0] $end
$var wire 24 1# outdata [23:0] $end
$upscope $end
$upscope $end
$upscope $end
$scope module q_selelct_table $end
$var wire 5 2# d_idx [4:0] $end
$var wire 5 3# d_ori [4:0] $end
$var wire 1 4# neg $end
$var wire 5 5# r_idx [4:0] $end
$var wire 5 6# r_ori [4:0] $end
$var wire 1 7# r_ge_1101 $end
$var wire 1 8# r_ge_1100 $end
$var wire 1 9# r_ge_1011 $end
$var wire 1 :# r_ge_1010 $end
$var wire 1 ;# r_ge_1001 $end
$var wire 1 <# r_ge_1000 $end
$var wire 1 =# r_ge_0111 $end
$var wire 1 ># r_ge_0110 $end
$var wire 1 ?# r_ge_0101 $end
$var wire 1 @# r_ge_0100 $end
$var wire 1 A# r_ge_0011 $end
$var wire 1 B# r_ge_0010 $end
$var wire 3 C# quotient_temp [2:0] $end
$var wire 3 D# quotient [2:0] $end
$var wire 2 E# q [1:0] $end
$var wire 1 F# ops_sign $end
$var reg 1 G# q0 $end
$var reg 1 H# q2 $end
$upscope $end
$scope module qd_gen1 $end
$var wire 26 I# current_divisor [25:0] $end
$var wire 3 J# mid_quotient [2:0] $end
$var wire 26 K# current_q_d [25:0] $end
$upscope $end
$scope module rounding_grs_1 $end
$var wire 1 :" guard $end
$var wire 24 L# man [23:0] $end
$var wire 1 2" round $end
$var wire 1 1" sticky $end
$var wire 1 M# tie $end
$var reg 1 =" exp_add $end
$var reg 24 N# rounded_man [23:0] $end
$upscope $end
$upscope $end
$scope module func_selector $end
$var wire 1 # clk $end
$var wire 1 . gated_clk_FMA $end
$var wire 1 - gated_clk_div $end
$var wire 3 O# mode [2:0] $end
$var wire 1 & sub $end
$var wire 1 , mul $end
$var wire 1 0 div $end
$var wire 1 1 add $end
$upscope $end
$scope module result_selector $end
$var wire 6 P# flag [5:0] $end
$var wire 3 Q# mode [2:0] $end
$var wire 32 R# result_FMA [31:0] $end
$var wire 32 S# result_div [31:0] $end
$var reg 32 T# output_r [31:0] $end
$upscope $end
$upscope $end
$upscope $end
$enddefinitions $end
$comment Show the parameter values. $end
$dumpall
$end
#0
$dumpvars
b0 T#
bx S#
bx R#
bx Q#
b0 P#
bx O#
b0 N#
0M#
b0 L#
b0 K#
b0 J#
b0xxxxxxxxxxxxxxxxxxxxxxxx I#
0H#
1G#
0F#
b0 E#
b0 D#
b0 C#
xB#
xA#
x@#
x?#
x>#
x=#
x<#
x;#
x:#
x9#
x8#
x7#
b0xxx 6#
b0xxx 5#
04#
b0xxxx 3#
b0xxxx 2#
bx 1#
bx 0#
bx /#
bx .#
bx -#
bx ,#
bx +#
bx *#
bx )#
bx (#
x'#
bx &#
bx %#
bx $#
bx ##
bx "#
x!#
bx ~"
bx }"
bx |"
bx {"
b0xxxxxxxx z"
bx y"
bx x"
bx w"
b0xxxxxxxx v"
b0xxxxxxxx u"
xt"
xs"
b0xxxxxxxx r"
bx q"
b0xxxxxxxx p"
bx o"
bx n"
bx m"
bx l"
bx k"
b1111110 j"
bx i"
bx h"
bx g"
bx f"
bx e"
bx d"
bx c"
bx b"
bx a"
b0 `"
b0 _"
bx00 ^"
bx ]"
b0xxxxxxxxxxxxxxxxxxxxxxxx \"
bx ["
bx Z"
bx Y"
bx X"
bx W"
bx V"
bx U"
bx T"
bx S"
bx R"
bx Q"
b0 P"
xO"
b0 N"
b0xxxxxxxxxxxxxxxxxxxxxxxx M"
b0 L"
b0 K"
b11 J"
b0 I"
bx H"
bx G"
b0xxxxxxxxxxxxxxxxxxxxxxxx F"
b0xxxxxxxxxxxxxxxxxxxxxxxx E"
bx D"
b0 C"
b0xxxx B"
bx A"
bx @"
bx ?"
bx >"
0="
bx <"
b1 ;"
0:"
b0 9"
bx00 8"
b0 7"
bx 6"
b0xxx 5"
b0 4"
x3"
02"
01"
bx 0"
bx /"
x."
bx -"
bx ,"
bx +"
x*"
x)"
bx ("
bx '"
bx &"
bx %"
bx $"
bx #"
bx ""
bx !"
b1111111 ~
b1111110 }
bx |
bx {
bx z
bx y
bx x
b0xxxxx w
bx v
xu
bx t
b0xxxxx s
b0xxxxx r
bx q
bx p
bx o
bx n
bx m
bx l
bx k
bx j
bx i
bx h
bx g
b0xxxxxxxxxxxxxxxxxxxxxxxxxxxxxxxxxxxxxxxxxxxxxxxxxxxxxxxxxxxxxxxxxxxxxxxxxx f
xe
bx d
bx c
bx b
bx a
b0xxxxxxxxxxxxxxxxxxxxxxxxxxxxxxxxxxxxxxxxxxxxxxxx `
bx _
bx ^
bx ]
bx \
bx [
xZ
bx Y
bx X
xW
bx V
bx U
bx T
bx S
xR
b0xxxxx Q
bx P
b0xxxxxxxxxxxxxxxxxxxxxxxx00000000000000000000000 O
b0xxxxxxxxxxxxxxxxxxxxxxxxxxxxxxxxxxxxxxxxxxxxxxxx N
bx M
bx L
xK
bx J
bx I
bx H
bx G
bx F
bx E
xD
bx C
bx B
xA
x@
x?
x>
x=
x<
bx ;
bx :
x9
x8
bx 7
bx 6
bx 5
bx 4
bx 3
bx 2
x1
x0
b0 /
0.
0-
x,
bx +
bx *
b0 )
bx (
bx '
x&
0%
bx $
0#
bx "
bx !
$end
#10
b1111 J"
xF#
bx 6#
bx 5"
bx 5#
b10 ;"
b1 /
b1 N"
b1 P#
b11 K"
bx00 M"
bx00 \"
x.
x-
1%
1#
#20
b10000011 M
b10000011 L
0W
0)"
b111100000000000000000000 C
b111100000000000000000000 ,"
0*"
b111100000000000000000001 -"
0K
0D
0<
0."
b111100000000000000000000 ^
b111100000000000000000000 +"
0u
b111100000000000000000000000000000000000000000000000000000000000000000000000 7
b111100000000000000000000000000000000000000000000000000000000000000000000000 \
b111100000000000000000000000000000000000000000000000000000000000000000000000 t
09
b0 Q
b0 r
b0 s
b1 V
b1 x
b111100000000000000000000000000000000000000000000000000000000000000000000000 4
b111100000000000000000000000000000000000000000000000000000000000000000000000 p
b111100000000000000000000000000000000000000000000000000000000000000000000000 [
b111100000000000000000000000000000000000000000000000000000000000000000000000 y
b11011 w
b0xxxx J"
b0xxxx000000000000000000000 C"
b0xxxx000000000000000000000 `"
b0xxxx000000000000000000000 K#
b0xxxx I"
b1111110 U"
b0 X"
b111100000000000000000000000000000000000000000000 ]
b111100000000000000000000000000000000000000000000 b
b111100000000000000000000000000000000000000000000 v
b0 S"
b0 ["
b0 V"
b0 Z"
b111100000000000000000000000000000000000000000000 d
0Z
bx 9"
bx _"
bx D#
bx J#
x4#
1A
0e
bx C#
bx E#
b1000001111100000000000000000000 E
08
b101000000000000000000000000000000000000000000000 P
b101000000000000000000000000000000000000000000000 a
b1 B
0R
b1111111 G
b1111111 q
b101000000000000000000000000000000000000000000000 c
xH#
xG#
b0 R"
b0 Y"
b10100000000000000000000000000000000000000000000 f
b111111111 S
b111111111 Y
b1010 3#
b1010 B"
b1010 2#
b0 <"
b0 Q"
b0 G"
b0 H"
0=
b1 :
b1 $"
b1111110 D"
b1111110 W"
b1111110 g"
b1111110 m"
b101000000000000000000000 E"
b101000000000000000000000 I#
b101000000000000000000000 ?"
b101000000000000000000000 d"
b101000000000000000000000 ##
b101000000000000000000000 1#
b0 >"
b0 c"
b0 "#
b0 0#
b101000000000000000000000 F"
b101000000000000000000000 A"
b101000000000000000000000 f"
b101000000000000000000000 )#
b101000000000000000000000 .#
b0 @"
b0 e"
b0 (#
b0 -#
b11 ;
b11 %"
b0 '"
b10100000000000000000000000000000000000000000000 N
b10100000000000000000000000000000000000000000000 `
b10100000000000000000000000000000000000000000000 F
b10100000000000000000000000000000000000000000000 |
b1111110 k"
b1111110 {"
1s"
b100 &"
b10100000000000000000000000000000000000000000000 O
b101000000000000000000000 H
b101000000000000000000000 n
b100000000000000000000000 I
b100000000000000000000000 k
b100000000000000000000000 {
b111111111 l"
b111111111 x"
b111111111 y"
0t"
b1111111 u"
b1111111 z"
0>
b10000011 T
b10000011 o
b10000011 #"
0?
b1111111 U
b1111111 l
b1111111 ""
b101111101 q"
b101111101 w"
b101000000000000000000000 ~"
b101000000000000000000000 /#
b11 ("
b101000000000000000000000 J
b101000000000000000000000 h
b101000000000000000000000 z
b111111000000000000000000000000 '
b111111000000000000000000000000 6"
b111111000000000000000000000000 T"
b111111000000000000000000000000 S#
03"
b101000000000000000000000 &#
b101000000000000000000000 ,#
b1000001101000000000000000000000 *
b1000001101000000000000000000000 6
b1000001101000000000000000000000 m
b111111100000000000000000000000 +
b111111100000000000000000000000 5
b111111100000000000000000000000 j
b10000011 p"
b10000011 n"
0!#
b1000000000000000000000 $#
b10000011 %#
0@
b10000010 X
b10000010 i
b10000010 !"
b10000010 r"
b10000010 v"
b10000010 o"
0'#
b1000000000000000000000 *#
b10000010 +#
0,
11
0&
00
bx )
bx T#
0.
0-
b1000001101000000000000000000000 "
b1000001101000000000000000000000 0"
b1000001101000000000000000000000 b"
b1000001101000000000000000000000 i"
b1000001101000000000000000000000 }"
b1000001001000000000000000000000 !
b1000001001000000000000000000000 3
b1000001001000000000000000000000 g
b1000001001000000000000000000000 /"
b1000001001000000000000000000000 a"
b1000001001000000000000000000000 h"
b1000001001000000000000000000000 |"
b1 $
b1 O#
b1 Q#
0#
#30
b1000001111100000000000000000000 )
b1000001111100000000000000000000 T#
b1000001111100000000000000000000 (
b1000001111100000000000000000000 _
b1000001111100000000000000000000 R#
b1 2
1.
1#
#40
b0 V
b0 x
b11100 w
08
b1111111111111111111111111111101100000000000000000000000000000000000000000000 c
1e
b101000000000000000000000 C
b101000000000000000000000 ,"
0=
b10100000000000000000000000000000000000000000000 P
b10100000000000000000000000000000000000000000000 a
19
b1 Q
b1 r
b1 s
b101000000000000000000001 -"
b101000000000000000000000 ^
b101000000000000000000000 +"
b0 B
b1111110 G
b1111110 q
b101000000000000000000000000000000000000000000000000000000000000000000000000 7
b101000000000000000000000000000000000000000000000000000000000000000000000000 \
b101000000000000000000000000000000000000000000000000000000000000000000000000 t
b0 S
b0 Y
b1000001001000000000000000000000 E
b10100000000000000000000000000000000000000000000000000000000000000000000000 4
b10100000000000000000000000000000000000000000000000000000000000000000000000 p
b10100000000000000000000000000000000000000000000000000000000000000000000000 [
b10100000000000000000000000000000000000000000000000000000000000000000000000 y
b1010000000000000000000000000000000000000000000 ]
b1010000000000000000000000000000000000000000000 b
b1010000000000000000000000000000000000000000000 v
b111111100000000000000000000000 '
b111111100000000000000000000000 6"
b111111100000000000000000000000 T"
b111111100000000000000000000000 S#
b1111111 U"
b1111111 D"
b1111111 W"
b1111111 g"
b1111111 m"
1>
b0 :
b0 $"
b10000010 M
b1010000000000000000000000000000000000000000000 d
b11110000000000000000000000000000000000000000000 f
b1111111 k"
b1111111 {"
0s"
b11000001101000000000000000000000 *
b11000001101000000000000000000000 6
b11000001101000000000000000000000 m
b10000010 L
b100 ;
b100 %"
b100 ("
b11110000000000000000000000000000000000000000000 N
b11110000000000000000000000000000000000000000000 `
b11110000000000000000000000000000000000000000000 F
b11110000000000000000000000000000000000000000000 |
b111100000000000000000000 J
b111100000000000000000000 h
b111100000000000000000000 z
b0 l"
b0 x"
b0 y"
1t"
b111100000000000000000000 F"
b111100000000000000000000 A"
b111100000000000000000000 f"
b111100000000000000000000 )#
b111100000000000000000000 .#
b111100000000000000000000 &#
b111100000000000000000000 ,#
0.
b10000011 X
b10000011 i
b10000011 !"
b10000011 r"
b10000011 v"
b10000011 o"
b11100000000000000000000 *#
b10000011 +#
01
1&
0#
b1000001111100000000000000000000 !
b1000001111100000000000000000000 3
b1000001111100000000000000000000 g
b1000001111100000000000000000000 /"
b1000001111100000000000000000000 a"
b1000001111100000000000000000000 h"
b1000001111100000000000000000000 |"
b10 $
b10 O#
b10 Q#
#50
b1000001001000000000000000000000 )
b1000001001000000000000000000000 T#
b1000001001000000000000000000000 (
b1000001001000000000000000000000 _
b1000001001000000000000000000000 R#
b10 2
1.
1#
#60
b0 V
b0 x
b11100 w
09
b0 Q
b0 r
b0 s
b110000000000000000000000 C
b110000000000000000000000 ,"
b110000000000000000000001 -"
b110000000000000000000000 ^
b110000000000000000000000 +"
b10000001 B
b11111101 G
b11111101 q
b110000000000000000000000000000000000000000000000000000000000000000000000000 7
b110000000000000000000000000000000000000000000000000000000000000000000000000 \
b110000000000000000000000000000000000000000000000000000000000000000000000000 t
b0 c
b0 P
b0 a
b10 '"
b0xx00000000000000000000000 C"
b0xx00000000000000000000000 `"
b0xx00000000000000000000000 K#
b10000001 S
b10000001 Y
b1000001010000000000000000000000 E
b110000000000000000000000000000000000000000000000000000000000000000000000000 4
b110000000000000000000000000000000000000000000000000000000000000000000000000 p
b110000000000000000000000000000000000000000000000000000000000000000000000000 [
b110000000000000000000000000000000000000000000000000000000000000000000000000 y
b11000000000000000000000000000000000000000000000 ]
b11000000000000000000000000000000000000000000000 b
b11000000000000000000000000000000000000000000000 v
b111111000000000000000000000000 '
b111111000000000000000000000000 6"
b111111000000000000000000000000 T"
b111111000000000000000000000000 S#
b1111110 U"
b1111110 D"
b1111110 W"
b1111110 g"
b1111110 m"
b110000010 &"
b0 O
b0 H
b0 n
b10000001 U
b10000001 l
b10000001 ""
b1000 3#
b1000 B"
b1000 2#
b101111111 :
b101111111 $"
b10000010 M
b11000000000000000000000000000000000000000000000 d
b11000000000000000000000000000000000000000000000 f
b1111110 k"
b1111110 {"
1s"
0>
b0 T
b0 o
b0 #"
b1000000100000000000000000000000 +
b1000000100000000000000000000000 5
b1000000100000000000000000000000 j
b101111111 q"
b101111111 w"
b100000000000000000000000 E"
b100000000000000000000000 I#
b100000000000000000000000 ?"
b100000000000000000000000 d"
b100000000000000000000000 ##
b100000000000000000000000 1#
b100000000000000000000000 ~"
b100000000000000000000000 /#
b10000010 L
b11 ;
b11 %"
b1 ("
b11000000000000000000000000000000000000000000000 N
b11000000000000000000000000000000000000000000000 `
b11000000000000000000000000000000000000000000000 F
b11000000000000000000000000000000000000000000000 |
b110000000000000000000000 J
b110000000000000000000000 h
b110000000000000000000000 z
b111111111 l"
b111111111 x"
b111111111 y"
0t"
b110000000000000000000000 F"
b110000000000000000000000 A"
b110000000000000000000000 f"
b110000000000000000000000 )#
b110000000000000000000000 .#
b110000000000000000000000 &#
b110000000000000000000000 ,#
b0 *
b0 6
b0 m
0.
b10000001 p"
b10000001 n"
b0 $#
b10000001 %#
b10000000 X
b10000000 i
b10000000 !"
b10000000 r"
b10000000 v"
b10000000 o"
b10000000000000000000000 *#
b10000000 +#
1,
0&
0#
b1000000100000000000000000000000 "
b1000000100000000000000000000000 0"
b1000000100000000000000000000000 b"
b1000000100000000000000000000000 i"
b1000000100000000000000000000000 }"
b1000000010000000000000000000000 !
b1000000010000000000000000000000 3
b1000000010000000000000000000000 g
b1000000010000000000000000000000 /"
b1000000010000000000000000000000 a"
b1000000010000000000000000000000 h"
b1000000010000000000000000000000 |"
b0 $
b0 O#
b0 Q#
#70
b1000001010000000000000000000000 )
b1000001010000000000000000000000 T#
b1000001010000000000000000000000 (
b1000001010000000000000000000000 _
b1000001010000000000000000000000 R#
b0 2
1.
1#
#80
b100000000000000000000000000000000000000000 c
b100000000000000000000000000000000000000000 P
b100000000000000000000000000000000000000000 a
b101001000000000000000000 C
b101001000000000000000000 ,"
b101 B
b101001000000000000000001 -"
b101001000000000000000000 ^
b101001000000000000000000 +"
b1111001 G
b1111001 q
b101001000000000000000000000000000000000000000000000000000000000000000000000 7
b101001000000000000000000000000000000000000000000000000000000000000000000000 \
b101001000000000000000000000000000000000000000000000000000000000000000000000 t
b101 S
b101 Y
b1000011101001000000000000000000 E
b101001000000000000000000000000000000000000000000000000000000000000000000000 4
b101001000000000000000000000000000000000000000000000000000000000000000000000 p
b101001000000000000000000000000000000000000000000000000000000000000000000000 [
b101001000000000000000000000000000000000000000000000000000000000000000000000 y
b10100100000000000000000000000000000000000000000 ]
b10100100000000000000000000000000000000000000000 b
b10100100000000000000000000000000000000000000000 v
b1000000100000000000000000000000 '
b1000000100000000000000000000000 6"
b1000000100000000000000000000000 T"
b1000000100000000000000000000000 S#
b10000001 U"
b10000001 D"
b10000001 W"
b10000001 g"
b10000001 m"
b10000000000000000000000000000000000000000000000 O
b100000000000000000000000 H
b100000000000000000000000 n
b11 &"
b11 '"
b111111011 :
b111111011 $"
b10000111 M
b10100100000000000000000000000000000000000000000 d
b10100000000000000000000000000000000000000000000 f
b10000001 k"
b10000001 {"
0s"
b10000010 T
b10000010 o
b10000010 #"
b10000010 U
b10000010 l
b10000010 ""
b101111110 q"
b101111110 w"
b10000111 L
b1000 ;
b1000 %"
b101 ("
b10100000000000000000000000000000000000000000000 N
b10100000000000000000000000000000000000000000000 `
b10100000000000000000000000000000000000000000000 F
b10100000000000000000000000000000000000000000000 |
b101000000000000000000000 J
b101000000000000000000000 h
b101000000000000000000000 z
b10 l"
b10 x"
b10 y"
1t"
b101000000000000000000000 F"
b101000000000000000000000 A"
b101000000000000000000000 f"
b101000000000000000000000 )#
b101000000000000000000000 .#
b101000000000000000000000 &#
b101000000000000000000000 ,#
b1000001000000000000000000000000 *
b1000001000000000000000000000000 6
b1000001000000000000000000000000 m
0.
b1000001000000000000000000000000 +
b1000001000000000000000000000000 5
b1000001000000000000000000000000 j
b10000010 p"
b10000010 n"
b10000010 %#
b10000100 X
b10000100 i
b10000100 !"
b10000100 r"
b10000100 v"
b10000100 o"
b1000000000000000000000 *#
b10000100 +#
0,
10
b0 )
b0 T#
0#
b1000001000000000000000000000000 "
b1000001000000000000000000000000 0"
b1000001000000000000000000000000 b"
b1000001000000000000000000000000 i"
b1000001000000000000000000000000 }"
b1000010001000000000000000000000 !
b1000010001000000000000000000000 3
b1000010001000000000000000000000 g
b1000010001000000000000000000000 /"
b1000010001000000000000000000000 a"
b1000010001000000000000000000000 h"
b1000010001000000000000000000000 |"
b11 $
b11 O#
b11 Q#
#90
xM#
b0xxxxxx I"
b0xxxxxx J"
b0x 7"
b0x N#
x:"
x2"
x1"
b0x L#
b11 ;"
b10 /
b10 N"
b10 P#
b0xxxx K"
b0xxxx L"
b11 2
1-
1#
#100
0-
0#
#110
b100000000000000000000000 8"
b100000000000000000000000 ^"
b1000000000000000000000 ]"
b100000000000000000000000 C"
b100000000000000000000000 `"
b100000000000000000000000 K#
b1 E#
0H#
0G#
b1 9"
b1 _"
b1 D#
b1 J#
1B#
1A#
1@#
1?#
0>#
0=#
0<#
0;#
0:#
09#
08#
07#
0M#
b1 C#
04#
b101 6#
b1 I"
b0 J"
b0 7"
b0 N#
0F#
0:"
02"
01"
b0 L#
b101 5"
b101 5#
b111 2
b0 K"
b0 L"
b101000000000000000000000 M"
b101000000000000000000000 \"
b1 ;"
b0 /
b0 N"
b0 P#
1-
1#
0%
#120
0-
0#
1%
#130
0?#
b101 I"
b100 J"
b100 6#
b0 8"
b0 ^"
11"
b100 5"
b100 5#
b0 ]"
b10 ;"
b1 /
b1 N"
b1 P#
b1 L"
b100000000000000000000000 M"
b100000000000000000000000 \"
b11 2
1-
1#
#140
0-
0#
#150
b0 C"
b0 `"
b0 K#
b0 9"
b0 _"
b0 D#
b0 J#
b0 C#
b0 E#
1G#
0B#
0A#
0@#
b10100 I"
b10011 J"
b1 7"
b1 N#
b0 6#
b0 8"
b0 ^"
1:"
b0 5"
b0 5#
b0 ]"
b11 ;"
b10 /
b10 N"
b10 P#
b100 K"
b101 L"
b0 M"
b0 \"
1-
1#
#160
0-
0#
#170
b1001111 J"
b1010000 I"
1M#
b10 7"
b10 N#
01"
b10 L#
b100 ;"
b11 /
b11 N"
b11 P#
b10011 K"
b10100 L"
1-
1#
#180
0-
0#
#190
0M#
b100111111 J"
b101000000 I"
b1010 7"
b1010 N#
0:"
b1010 L#
b101 ;"
b100 /
b100 N"
b100 P#
b1001111 K"
b1010000 L"
1-
1#
#200
0-
0#
#210
b10011111111 J"
b10100000000 I"
b101000 7"
b101000 N#
b101000 L#
b110 ;"
b101 /
b101 N"
b101 P#
b100111111 K"
b101000000 L"
1-
1#
#220
0-
0#
#230
b1001111111111 J"
b1010000000000 I"
b10100000 7"
b10100000 N#
b10100000 L#
b111 ;"
b110 /
b110 N"
b110 P#
b10011111111 K"
b10100000000 L"
1-
1#
