SRT_Divider/obj_dir/dump.vcd
$version Generated by VerilatedVcd $end
$timescale 1ps $end

 $scope module TOP $end
  $var wire  1 i clk $end
  $var wire 32 g dividend [31:0] $end
  $var wire 32 h divisor [31:0] $end
  $var wire 32 k quotient [31:0] $end
  $var wire  1 j rst $end
  $scope module SRT_divider_FP32 $end
   $var wire 26 T Q_neg [25:0] $end
   $var wire 26 6 Q_neg_next [25:0] $end
   $var wire 26 S Q_pos [25:0] $end
   $var wire 26 5 Q_pos_next [25:0] $end
   $var wire  1 i clk $end
   $var wire  5 ) compl_dividend_shift [4:0] $end
   $var wire  5 ( compl_divisor_shift [4:0] $end
   $var wire 26 + current_dividend [25:0] $end
   $var wire 26 , current_divisor [25:0] $end
   $var wire  8 l current_exponent [7:0] $end
   $var wire 26 2 current_q_d [25:0] $end
   $var wire 26 Q current_remainder [25:0] $end
   $var wire  5 - d_idx [4:0] $end
   $var wire 32 g dividend [31:0] $end
   $var wire 24 # dividend_mantissa_normalized [23:0] $end
   $var wire  5 % dividend_shift [4:0] $end
   $var wire 32 h divisor [31:0] $end
   $var wire 24 $ divisor_mantissa_normalized [23:0] $end
   $var wire  5 & divisor_shift [4:0] $end
   $var wire  5 ' final_shift [4:0] $end
   $var wire  6 U flag [5:0] $end
   $var wire  6 V flag_1 [5:0] $end
   $var wire  3 4 mid_quotient [2:0] $end
   $var wire 26 3 next_remainder [25:0] $end
   $var wire 26 ~ next_remainder_before_shift [25:0] $end
   $var wire 26 } next_remainder_n [25:0] $end
   $var wire 26 | next_remainder_p [25:0] $end
   $var wire 24 W q_pos_cut [23:0] $end
   $var wire 24 7 q_rounding [23:0] $end
   $var wire 32 k quotient [31:0] $end
   $var wire  5 R r_idx [4:0] $end
   $var wire 24 7 result_before_ieee [23:0] $end
   $var wire  1 m result_sign $end
   $var wire  1 * right_shift $end
   $var wire 24 8 rounding_data [23:0] $end
   $var wire  1 j rst $end
   $scope module dut $end
    $var wire  8 < addend_copmplement [7:0] $end
    $var wire  8 l current_exponent [7:0] $end
    $var wire  5 : exponent_addend [4:0] $end
    $var wire  8 n exponent_final [7:0] $end
    $var wire 32 k quotient [31:0] $end
    $var wire 24 7 result [23:0] $end
    $var wire 24 ; result_shifted [23:0] $end
    $var wire 24 9 result_temp [23:0] $end
    $var wire  1 m resultsign $end
    $var wire  1 * right_shift $end
    $var wire  5 ' shift_nums [4:0] $end
    $scope module mngen $end
     $var wire 24 9 data [23:0] $end
     $var wire 24 ; outdata [23:0] $end
     $var wire  5 : shift [4:0] $end
    $upscope $end
   $upscope $end
   $scope module next_remainder_gen1 $end
    $var wire  1 ? cout $end
    $var wire  1 @ cout2 $end
    $var wire 26 2 current_q_d [25:0] $end
    $var wire 26 Q current_remainder [25:0] $end
    $var wire  3 4 mid_quotient [2:0] $end
    $var wire 26 3 next_remainder [25:0] $end
    $var wire 26 A next_remainder_before_shift [25:0] $end
    $var wire 26 > next_remainder_n [25:0] $end
    $var wire 26 = next_remainder_p [25:0] $end
    $scope module adder_neg $end
     $var wire 26 Q a [25:0] $end
     $var wire 26 B b [25:0] $end
     $var wire  1 !! cin $end
     $var wire  1 @ cout $end
     $var wire 26 > sum [25:0] $end
    $upscope $end
    $scope module adder_pos $end
     $var wire 26 Q a [25:0] $end
     $var wire 26 2 b [25:0] $end
     $var wire  1 "! cin $end
     $var wire  1 ? cout $end
     $var wire 26 = sum [25:0] $end
    $upscope $end
   $upscope $end
   $scope module norm $end
    $var wire  8 l current_exponent [7:0] $end
    $var wire 32 g dividend [31:0] $end
    $var wire 24 # dividend_mantissa_normalized [23:0] $end
    $var wire  5 % dividend_shift [4:0] $end
    $var wire 32 h divisor [31:0] $end
    $var wire 24 $ divisor_mantissa_normalized [23:0] $end
    $var wire  5 & divisor_shift [4:0] $end
    $var wire  1 m result_sign $end
    $scope module exp $end
     $var wire  1 t cout $end
     $var wire  1 u cout2 $end
     $var wire 32 g dividend [31:0] $end
     $var wire  9 q dividend_sign [8:0] $end
     $var wire 32 h divisor [31:0] $end
     $var wire  9 s divisor_comple [8:0] $end
     $var wire  9 r divisor_sign [8:0] $end
     $var wire  8 o exp_dividend [7:0] $end
     $var wire  8 p exp_divisor [7:0] $end
     $var wire  8 l result_exp [7:0] $end
     $var wire  9 v result_tmp [8:0] $end
     $var wire  9 w result_tmp2 [8:0] $end
     $scope module adder $end
      $var wire  9 q a [8:0] $end
      $var wire  9 s b [8:0] $end
      $var wire  1 t cout $end
      $var wire  9 v sum [8:0] $end
     $upscope $end
     $scope module adder2 $end
      $var wire  9 v a [8:0] $end
      $var wire  9 #! b [8:0] $end
      $var wire  1 u cout $end
      $var wire  9 w sum [8:0] $end
     $upscope $end
    $upscope $end
    $scope module mfm $end
     $var wire 32 g dividend [31:0] $end
     $var wire  8 o dividend_exponent [7:0] $end
     $var wire 23 z dividend_mantissa [22:0] $end
     $var wire 24 # dividend_mantissa_normalized [23:0] $end
     $var wire  5 % dividend_shift [4:0] $end
     $var wire  1 x dividend_sign $end
     $var wire 24 . dividend_tmp [23:0] $end
     $var wire 32 h divisor [31:0] $end
     $var wire  8 p divisor_exponent [7:0] $end
     $var wire 23 { divisor_mantissa [22:0] $end
     $var wire 24 $ divisor_mantissa_normalized [23:0] $end
     $var wire  5 & divisor_shift [4:0] $end
     $var wire  1 y divisor_sign $end
     $var wire 24 / divisor_tmp [23:0] $end
     $var wire  1 m result_sign $end
     $scope module mng $end
      $var wire 24 . data [23:0] $end
      $var wire 24 # outdata [23:0] $end
      $var wire  5 % shift [4:0] $end
     $upscope $end
     $scope module mng2 $end
      $var wire 24 / data [23:0] $end
      $var wire 24 $ outdata [23:0] $end
      $var wire  5 & shift [4:0] $end
     $upscope $end
    $upscope $end
   $upscope $end
   $scope module q_selelct_table $end
    $var wire  5 - d_idx [4:0] $end
    $var wire  5 - d_ori [4:0] $end
    $var wire  1 D neg $end
    $var wire  1 X ops_sign $end
    $var wire  2 C q [1:0] $end
    $var wire  1 E q0 $end
    $var wire  1 F q2 $end
    $var wire  3 4 quotient [2:0] $end
    $var wire  3 G quotient_temp [2:0] $end
    $var wire  1 Z r_ge_0010 $end
    $var wire  1 [ r_ge_0011 $end
    $var wire  1 e r_ge_0100 $end
    $var wire  1 _ r_ge_0101 $end
    $var wire  1 \ r_ge_0110 $end
    $var wire  1 ] r_ge_0111 $end
    $var wire  1 ^ r_ge_1000 $end
    $var wire  1 ` r_ge_1001 $end
    $var wire  1 a r_ge_1010 $end
    $var wire  1 b r_ge_1011 $end
    $var wire  1 c r_ge_1100 $end
    $var wire  1 d r_ge_1101 $end
    $var wire  5 R r_idx [4:0] $end
    $var wire  5 Y r_ori [4:0] $end
   $upscope $end
   $scope module qd_gen1 $end
    $var wire 26 , current_divisor [25:0] $end
    $var wire 26 2 current_q_d [25:0] $end
    $var wire  3 4 mid_quotient [2:0] $end
   $upscope $end
   $scope module rounding_module_1 $end
    $var wire 26 , current_divisor [25:0] $end
    $var wire 26 Q current_remainder [25:0] $end
    $var wire  1 J is_0_d $end
    $var wire  1 H is_2d_3d $end
    $var wire  1 I is_d_2d $end
    $var wire  1 L is_neg2d_negd $end
    $var wire  1 M is_neg3d_neg2d $end
    $var wire  1 K is_negd_0 $end
    $var wire 24 )! minus_one [23:0] $end
    $var wire 24 '! minus_three [23:0] $end
    $var wire 24 (! minus_two [23:0] $end
    $var wire 24 $! one [23:0] $end
    $var wire 24 8 rounding_data [23:0] $end
    $var wire 24 &! three [23:0] $end
    $var wire 24 %! two [23:0] $end
    $scope module check $end
     $var wire  1 P abs_is_0_d $end
     $var wire  1 N abs_is_2d_3d $end
     $var wire  1 O abs_is_d_2d $end
     $var wire 26 f abs_r [25:0] $end
     $var wire 26 , current_divisor [25:0] $end
     $var wire 26 Q current_remainder [25:0] $end
     $var wire 26 0 d2 [25:0] $end
     $var wire 26 1 d3 [25:0] $end
     $var wire  1 J is_0_d $end
     $var wire  1 H is_2d_3d $end
     $var wire  1 I is_d_2d $end
     $var wire  1 L is_neg2d_negd $end
     $var wire  1 M is_neg3d_neg2d $end
     $var wire  1 K is_negd_0 $end
     $var wire 26 *! one [25:0] $end
     $var wire  1 X r_is_negative $end
    $upscope $end
   $upscope $end
  $upscope $end
 $upscope $end
$enddefinitions $end


#0
b000000000000000000000000 #
b000000000000000000000000 $
b00000 %
b00000 &
b00000 '
b00000 (
b00000 )
1*
b00000000000000000000000000 +
b00000000000000000000000000 ,
b00000 -
b000000000000000000000000 .
b000000000000000000000000 /
b00000000000000000000000000 0
b00000000000000000000000000 1
b00000000000000000000000000 2
b00000000000000000000000000 3
b000 4
b00000000000000000000000000 5
b00000000000000000000000011 6
b000000000000000000000000 7
b000000000000000000000000 8
b000000000000000000000000 9
b00000 :
b000000000000000000000000 ;
b00000000 <
b00000000000000000000000000 =
b00000000000000000000000000 >
0?
1@
b00000000000000000000000000 A
b11111111111111111111111111 B
b00 C
0D
1E
0F
b000 G
0H
0I
0J
0K
0L
0M
0N
0O
0P
b00000000000000000000000000 Q
b00000 R
b00000000000000000000000000 S
b00000000000000000000000000 T
b000000 U
b000001 V
b000000000000000000000000 W
0X
b00000 Y
0Z
0[
0\
0]
0^
0_
0`
0a
0b
0c
0d
0e
b00000000000000000000000000 f
b00000000000000000000000000000000 g
b00000000000000000000000000000000 h
1i
0j
b00111111100000000000000000000000 k
b01111111 l
0m
b01111111 n
b00000000 o
b00000000 p
b000000000 q
b000000000 r
b000000000 s
0t
0u
b000000000 v
b001111111 w
0x
0y
b00000000000000000000000 z
b00000000000000000000000 {
b00000000000000000000000000 |
b00000000000000000000000000 }
b00000000000000000000000000 ~
1!!
0"!
b001111111 #!
b000000000000000000000001 $!
b000000000000000000000010 %!
b000000000000000000000011 &!
b111111111111111111111101 '!
b111111111111111111111110 (!
b111111111111111111111111 )!
b00000000000000000000000001 *!
#1
#2
#3
#4
#5
0i
#6
#7
#8
#9
#10
b100000000000000000000000 #
b100000000000000000000000 $
b00100000000000000000000000 +
b00100000000000000000000000 ,
b01000 -
b100000000000000000000000 .
b100000000000000000000000 /
b01000000000000000000000000 0
b01100000000000000000000000 1
b00000000000000000000001111 6
1J
1P
b00000000000000000000000011 T
b000001 U
b000010 V
b01000000100000000000000000000000 g
b01000000000000000000000000000000 h
1i
1j
b01000000000000000000000000000000 k
b10000000 l
b10000000 n
b10000001 o
b10000000 p
b010000001 q
b010000000 r
b110000000 s
1t
b000000001 v
b010000000 w
#11
#12
#13
#14
#15
0i
#16
#17
#18
#19
#20
b00000000000000000000111111 6
b00000000000000000000001111 T
b000010 U
b000011 V
1i
#21
#22
#23
#24
#25
0i
#26
#27
#28
#29
#30
b00000000000000000011111111 6
b00000000000000000000111111 T
b000011 U
b000100 V
1i
#31
#32
#33
#34
#35
0i
#36
#37
#38
#39
#40
b00000000000000001111111111 6
b00000000000000000011111111 T
b000100 U
b000101 V
1i
#41
#42
#43
#44
#45
0i
#46
#47
#48
#49
#50
b00000000000000111111111111 6
b00000000000000001111111111 T
b000101 U
b000110 V
1i
#51
#52
#53
#54
#55
0i
#56
#57
#58
#59
#60
b00000000000011111111111111 6
b00000000000000111111111111 T
b000110 U
b000111 V
1i
#61
#62
#63
#64
#65
0i
#66
#67
#68
#69
#70
b00000000001111111111111111 6
b00000000000011111111111111 T
b000111 U
b001000 V
1i
#71
#72
#73
#74
#75
0i
#76
#77
#78
#79
#80
b00000000111111111111111111 6
b00000000001111111111111111 T
b001000 U
b001001 V
1i
#81
#82
#83
#84
#85
0i
#86
#87
#88
#89
#90
b00000011111111111111111111 6
b00000000111111111111111111 T
b001001 U
b001010 V
1i
#91
#92
#93
#94
#95
0i
#96
#97
#98
#99
#100
b00001111111111111111111111 6
b00000011111111111111111111 T
b001010 U
b001011 V
1i
#101
#102
#103
#104
#105
0i
#106
#107
#108
#109
#110
b00111111111111111111111111 6
b00001111111111111111111111 T
b001011 U
b001100 V
1i
#111
#112
#113
#114
#115
0i
#116
#117
#118
#119
#120
b11111111111111111111111111 6
b00111111111111111111111111 T
b001100 U
b001101 V
1i
#121
#122
#123
#124
#125
0i
#126
#127
#128
#129
#130
b11111111111111111111111111 T
b001101 U
b001110 V
1i
#131
#132
#133
#134
#135
0i
#136
#137
#138
#139
#140
b001110 U
b001111 V
1i
#141
#142
#143
#144
#145
0i
#146
#147
#148
#149
#150
b001111 U
b010000 V
1i
#151
#152
#153
#154
#155
0i
#156
#157
#158
#159
#160
b010000 U
b010001 V
1i
#161
#162
#163
#164
#165
0i
#166
#167
#168
#169
#170
b100000001001100010111010 #
b100000000100101010111100 $
b00100000001001100010111010 +
b00100000000100101010111100 ,
b100000001001100010111010 .
b100000000100101010111100 /
b01000000001001010101111000 0
b01100000001110000000110100 1
b010001 U
b010010 V
b01000010000000001001100010111010 g
b01001000000000000100101010111100 h
1i
b00111001100000000000000000000000 k
b01110011 l
b01110011 n
b10000100 o
b10010000 p
b010000100 q
b010010000 r
b101110000 s
0t
1u
b111110100 v
b001110011 w
b00000001001100010111010 z
b00000000100101010111100 {
#171
#172
#173
#174
#175
0i
#176
#177
#178
#179
#180
b010010 U
b010011 V
1i
#181
#182
#183
#184
#185
0i
#186
#187
#188
#189
#190
b010011 U
b010100 V
1i
#191
#192
#193
#194
#195
0i
#196
#197
#198
#199
#200
b010100 U
b010101 V
1i
#201
#202
#203
#204
#205
0i
#206
#207
#208
#209
#210
b010101 U
b010110 V
1i
#211
#212
#213
#214
#215
0i
#216
#217
#218
#219
#220
b010110 U
b010111 V
1i
#221
#222
#223
#224
#225
0i
#226
#227
#228
#229
#230
b010111 U
b011000 V
1i
#231
#232
#233
#234
#235
0i
#236
#237
#238
#239
#240
b011000 U
b011001 V
1i
#241
#242
#243
#244
#245
0i
#246
#247
#248
#249
#250
b011001 U
b011010 V
1i
#251
#252
#253
#254
#255
0i
#256
#257
#258
#259
#260
b011010 U
b011011 V
1i
#261
#262
#263
#264
#265
0i
#266
#267
#268
#269
#270
b011011 U
b011100 V
1i
#271
#272
#273
#274
#275
0i
#276
#277
#278
#279
#280
b011100 U
b011101 V
1i
#281
#282
#283
#284
#285
0i
#286
#287
#288
#289
#290
b011101 U
b011110 V
1i
#291
#292
#293
#294
#295
0i
#296
#297
#298
#299
#300
b011110 U
b011111 V
1i
#301
#302
#303
#304
#305
0i
#306
#307
#308
#309
#310
b011111 U
b100000 V
1i
#311
#312
#313
#314
#315
0i
#316
#317
#318
#319
#320
b101110101001100010111010 #
b00101110101001100010111010 +
b101110101001100010111010 .
b100000 U
b100001 V
b01000010101110101001100010111010 g
1i
b00111010000000000000000000000000 k
b01110100 l
b01110100 n
b10000101 o
b010000101 q
b111110101 v
b001110100 w
b01110101001100010111010 z
#321
#322
#323
#324
#325
0i
#326
#327
#328
#329
#330
b100001 U
b100010 V
1i
#331
#332
#333
#334
#335
0i
#336
#337
#338
#339
#340
b100010 U
b100011 V
1i
#341
#342
#343
#344
#345
0i
#346
#347
#348
#349
#350
b100011 U
b100100 V
1i
#351
#352
#353
#354
#355
0i
#356
#357
#358
#359
#360
b100100 U
b100101 V
1i
#361
#362
#363
#364
#365
0i
#366
#367
#368
#369
#370
b100101 U
b100110 V
1i
#371
#372
#373
#374
#375
0i
#376
#377
#378
#379
#380
b100110 U
b100111 V
1i
#381
#382
#383
#384
#385
0i
#386
#387
#388
#389
#390
b100111 U
b101000 V
1i
#391
#392
#393
#394
#395
0i
#396
#397
#398
#399
#400
b101000 U
b101001 V
1i
#401
#402
#403
#404
#405
0i
#406
#407
#408
#409
#410
b101001 U
b101010 V
1i
#411
#412
#413
#414
#415
0i
#416
#417
#418
#419
#420
b101010 U
b101011 V
1i
#421
#422
#423
#424
#425
0i
#426
#427
#428
#429
#430
b101011 U
b101100 V
1i
#431
#432
#433
#434
#435
0i
#436
#437
#438
#439
#440
b101100 U
b101101 V
1i
#441
#442
#443
#444
#445
0i
#446
#447
#448
#449
#450
b101101 U
b101110 V
1i
#451
#452
#453
#454
#455
0i
#456
#457
#458
#459
#460
b101110 U
b101111 V
1i
#461
#462
#463
#464
#465
0i
#466
#467
#468
#469
#470
b101111 U
b110000 V
1i
#471
#472
#473
#474
#475
0i
#476
#477
#478
#479
#480
b110000 U
b110001 V
1i
#481
#482
#483
#484
#485
0i
#486
#487
#488
#489
#490
b110001 U
b110010 V
1i
#491
#492
#493
#494
#495
0i
#496
#497
#498
#499
#500
b110010 U
b110011 V
1i
#501
#502
#503
#504
#505
0i
#506
#507
#508
#509
#510
b110011 U
b110100 V
1i
#511
#512
#513
#514
#515
0i
#516
#517
#518
#519
#520
b110100 U
b110101 V
1i
#521
#522
#523
#524
#525
0i
#526
#527
#528
#529
#530
b110101 U
b110110 V
1i
#531
#532
#533
#534
#535
0i
#536
#537
#538
#539
#540
b110110 U
b110111 V
1i
#541
#542
#543
#544
#545
0i
#546
#547
#548
#549
#550
b110111 U
b111000 V
1i
#551
#552
#553
#554
#555
0i
#556
#557
#558
#559
#560
b111000 U
b111001 V
1i
#561
#562
#563
#564
#565
0i
#566
#567
#568
#569
#570
b111001 U
b111010 V
1i
#571
#572
#573
#574
#575
0i
#576
#577
#578
#579
#580
b111010 U
b111011 V
1i
#581
#582
#583
#584
#585
0i
#586
#587
#588
#589
#590
b111011 U
b111100 V
1i
#591
#592
#593
#594
#595
0i
#596
#597
#598
#599
#600
b111100 U
b111101 V
1i
#601
#602
#603
#604
#605
0i
#606
#607
#608
#609
#610
b111101 U
b111110 V
1i
#611
#612
#613
#614
#615
0i
#616
#617
#618
#619
#620
b111110 U
b111111 V
1i
#621
#622
#623
#624
#625
0i
#626
#627
#628
#629
#630
b111111 U
b000000 V
1i
#631
#632
#633
#634
#635
0i
#636
#637
#638
#639
#640
b000000 U
b000001 V
1i
#641
#642
#643
#644
#645
0i
#646
#647
#648
#649
#650
b000001 U
b000010 V
1i
#651
#652
#653
#654
#655
0i
#656
#657
#658
#659
#660
b000010 U
b000011 V
1i
#661
#662
#663
#664
#665
0i
#666
#667
#668
#669
#670
b000011 U
b000100 V
1i
#671
#672
#673
#674
#675
0i
#676
#677
#678
#679
#680
b000100 U
b000101 V
1i
#681
#682
#683
#684
#685
0i
#686
#687
#688
#689
#690
b000101 U
b000110 V
1i
#691
#692
#693
#694
#695
0i
#696
#697
#698
#699
#700
b000110 U
b000111 V
1i
#701
#702
#703
#704
#705
0i
#706
#707
#708
#709
#710
b000111 U
b001000 V
1i
#711
#712
#713
#714
#715
0i
#716
#717
#718
#719
#720
b001000 U
b001001 V
1i
#721
#722
#723
#724
#725
0i
#726
#727
#728
#729
#730
b001001 U
b001010 V
1i
#731
#732
#733
#734
#735
0i
#736
#737
#738
#739
#740
b001010 U
b001011 V
1i
#741
#742
#743
#744
#745
0i
#746
#747
#748
#749
#750
b001011 U
b001100 V
1i
#751
#752
#753
#754
#755
0i
#756
#757
#758
#759
#760
b001100 U
b001101 V
1i
#761
#762
#763
#764
#765
0i
#766
#767
#768
#769
#770
b001101 U
b001110 V
1i
#771
#772
#773
#774
#775
0i
#776
#777
#778
#779
#780
b001110 U
b001111 V
1i
#781
#782
#783
#784
#785
0i
#786
#787
#788
#789
#790
b001111 U
b010000 V
1i
#791
#792
#793
#794
#795
0i
#796
#797
#798
#799
#800
b010000 U
b010001 V
1i
#801
#802
#803
#804
#805
0i
#806
#807
#808
#809
#810
b010001 U
b010010 V
1i
#811
#812
#813
#814
#815
0i
#816
#817
#818
#819
#820
b010010 U
b010011 V
1i
#821
#822
#823
#824
#825
0i
#826
#827
#828
#829
#830
b010011 U
b010100 V
1i
#831
#832
#833
#834
#835
0i
#836
#837
#838
#839
#840
b010100 U
b010101 V
1i
#841
#842
#843
#844
#845
0i
#846
#847
#848
#849
#850
b010101 U
b010110 V
1i
#851
#852
#853
#854
#855
0i
#856
#857
#858
#859
#860
b010110 U
b010111 V
1i
#861
#862
#863
#864
#865
0i
#866
#867
#868
#869
#870
b010111 U
b011000 V
1i
#871
#872
#873
#874
#875
0i
#876
#877
#878
#879
#880
b011000 U
b011001 V
1i
#881
#882
#883
#884
#885
0i
#886
#887
#888
#889
#890
b011001 U
b011010 V
1i
#891
#892
#893
#894
#895
0i
#896
#897
#898
#899
#900
b011010 U
b011011 V
1i
#901
#902
#903
#904
#905
0i
#906
#907
#908
#909
#910
b011011 U
b011100 V
1i
#911
#912
#913
#914
#915
0i
#916
#917
#918
#919
#920
b011100 U
b011101 V
1i
#921
#922
#923
#924
#925
0i
#926
#927
#928
#929
#930
b011101 U
b011110 V
1i
#931
#932
#933
#934
#935
0i
#936
#937
#938
#939
#940
b011110 U
b011111 V
1i
#941
#942
#943
#944
#945
0i
#946
#947
#948
#949
#950
b011111 U
b100000 V
1i
#951
#952
#953
#954
#955
0i
#956
#957
#958
#959
#960
b100000 U
b100001 V
1i
#961
#962
#963
#964
#965
0i
#966
#967
#968
#969
#970
b100001 U
b100010 V
1i
#971
#972
#973
#974
#975
0i
#976
#977
#978
#979
#980
b100010 U
b100011 V
1i
#981
#982
#983
#984
#985
0i
#986
#987
#988
#989
#990
b100011 U
b100100 V
1i
#991
#992
#993
#994
#995
0i
#996
#997
#998
#999
#1000
b100100 U
b100101 V
1i
#1001
#1002
#1003
#1004
#1005
0i
#1006
#1007
#1008
#1009
#1010
b100101 U
b100110 V
1i
#1011
#1012
#1013
#1014
#1015
0i
#1016
#1017
#1018
#1019
#1020
b100110 U
b100111 V
1i
#1021
#1022
#1023
#1024
#1025
0i
#1026
#1027
#1028
#1029
#1030
b100111 U
b101000 V
1i
#1031
#1032
#1033
#1034
#1035
0i
#1036
#1037
#1038
#1039
#1040
b101000 U
b101001 V
1i
#1041
#1042
#1043
#1044
#1045
0i
#1046
#1047
#1048
#1049
#1050
b101001 U
b101010 V
1i
#1051
#1052
#1053
#1054
#1055
0i
#1056
#1057
#1058
#1059
#1060
b101010 U
b101011 V
1i
#1061
#1062
#1063
#1064
#1065
0i
#1066
#1067
#1068
#1069
#1070
b101011 U
b101100 V
1i
#1071
#1072
#1073
#1074
#1075
0i
#1076
#1077
#1078
#1079
#1080
b101100 U
b101101 V
1i
#1081
#1082
#1083
#1084
#1085
0i
#1086
#1087
#1088
#1089
#1090
b101101 U
b101110 V
1i
#1091
#1092
#1093
#1094
#1095
0i
#1096
#1097
#1098
#1099
#1100
b101110 U
b101111 V
1i
#1101
#1102
#1103
#1104
#1105
0i
#1106
#1107
#1108
#1109
#1110
b101111 U
b110000 V
1i
#1111
#1112
#1113
#1114
#1115
0i
#1116
#1117
#1118
#1119
#1120
b110000 U
b110001 V
1i
#1121
#1122
#1123
#1124
#1125
0i
#1126
#1127
#1128
#1129
#1130
b110001 U
b110010 V
1i
#1131
#1132
#1133
#1134
#1135
0i
#1136
#1137
#1138
#1139
#1140
b110010 U
b110011 V
1i
#1141
#1142
#1143
#1144
#1145
0i
#1146
#1147
#1148
#1149
#1150
b110011 U
b110100 V
1i
#1151
#1152
#1153
#1154
#1155
0i
#1156
#1157
#1158
#1159
#1160
b110100 U
b110101 V
1i
#1161
#1162
#1163
#1164
#1165
0i
#1166
#1167
#1168
#1169
#1170
b110101 U
b110110 V
1i
#1171
#1172
#1173
#1174
#1175
0i
#1176
#1177
#1178
#1179
#1180
b110110 U
b110111 V
1i
#1181
#1182
#1183
#1184
#1185
0i
#1186
#1187
#1188
#1189
#1190
b110111 U
b111000 V
1i
#1191
#1192
#1193
#1194
#1195
0i
#1196
#1197
#1198
#1199
#1200
b111000 U
b111001 V
1i
#1201
#1202
#1203
#1204
#1205
0i
#1206
#1207
#1208
#1209
#1210
b111001 U
b111010 V
1i
#1211
#1212
#1213
#1214
#1215
0i
#1216
#1217
#1218
#1219
#1220
b111010 U
b111011 V
1i
#1221
#1222
#1223
#1224
#1225
0i
#1226
#1227
#1228
#1229
#1230
b111011 U
b111100 V
1i
#1231
#1232
#1233
#1234
#1235
0i
#1236
#1237
#1238
#1239
#1240
b111100 U
b111101 V
1i
#1241
#1242
#1243
#1244
#1245
0i
#1246
#1247
#1248
#1249
#1250
b111101 U
b111110 V
1i
#1251
#1252
#1253
#1254
#1255
0i
#1256
#1257
#1258
#1259
#1260
b111110 U
b111111 V
1i
#1261
#1262
#1263
#1264
#1265
0i
#1266
#1267
#1268
#1269
#1270
b111111 U
b000000 V
1i
#1271
#1272
#1273
#1274
#1275
0i
#1276
#1277
#1278
#1279
#1280
b000000 U
b000001 V
1i
#1281
#1282
#1283
#1284
#1285
0i
#1286
#1287
#1288
#1289
#1290
b000001 U
b000010 V
1i
#1291
#1292
#1293
#1294
#1295
0i
#1296
#1297
#1298
#1299
#1300
b000010 U
b000011 V
1i
#1301
#1302
#1303
#1304
#1305
0i
#1306
#1307
#1308
#1309
#1310
b000011 U
b000100 V
1i
#1311
#1312
#1313
#1314
#1315
0i
#1316
#1317
#1318
#1319
#1320
b000100 U
b000101 V
1i
#1321
#1322
#1323
#1324
#1325
0i
#1326
#1327
#1328
#1329
#1330
b000101 U
b000110 V
1i
#1331
#1332
#1333
#1334
#1335
0i
#1336
#1337
#1338
#1339
#1340
b000110 U
b000111 V
1i
#1341
#1342
#1343
#1344
#1345
0i
#1346
#1347
#1348
#1349
#1350
b000111 U
b001000 V
1i
#1351
#1352
#1353
#1354
#1355
0i
#1356
#1357
#1358
#1359
#1360
b001000 U
b001001 V
1i
#1361
#1362
#1363
#1364
#1365
0i
#1366
#1367
#1368
#1369
#1370
b001001 U
b001010 V
1i
#1371
#1372
#1373
#1374
#1375
0i
#1376
#1377
#1378
#1379
#1380
b001010 U
b001011 V
1i
#1381
#1382
#1383
#1384
#1385
0i
#1386
#1387
#1388
#1389
#1390
b001011 U
b001100 V
1i
#1391
#1392
#1393
#1394
#1395
0i
#1396
#1397
#1398
#1399
#1400
b001100 U
b001101 V
1i
#1401
#1402
#1403
#1404
#1405
0i
#1406
#1407
#1408
#1409
#1410
b001101 U
b001110 V
1i
#1411
#1412
#1413
#1414
#1415
0i
#1416
#1417
#1418
#1419
#1420
b001110 U
b001111 V
1i
#1421
#1422
#1423
#1424
#1425
0i
#1426
#1427
#1428
#1429
#1430
b001111 U
b010000 V
1i
#1431
#1432
#1433
#1434
#1435
0i
#1436
#1437
#1438
#1439
#1440
b010000 U
b010001 V
1i
#1441
#1442
#1443
#1444
#1445
0i
#1446
#1447
#1448
#1449
#1450
b010001 U
b010010 V
1i
#1451
#1452
#1453
#1454
#1455
0i
#1456
#1457
#1458
#1459
#1460
b010010 U
b010011 V
1i
#1461
#1462
#1463
#1464
#1465
0i
#1466
#1467
#1468
#1469
#1470
b010011 U
b010100 V
1i
#1471
#1472
#1473
#1474
#1475
0i
#1476
#1477
#1478
#1479
#1480
b010100 U
b010101 V
1i
#1481
#1482
#1483
#1484
#1485
0i
#1486
#1487
#1488
#1489
#1490
b010101 U
b010110 V
1i
#1491
#1492
#1493
#1494
#1495
0i
#1496
#1497
#1498
#1499
#1500
b010110 U
b010111 V
1i
#1501
#1502
#1503
#1504
#1505
0i
#1506
#1507
#1508
#1509
#1510
b010111 U
b011000 V
1i
#1511
#1512
#1513
#1514
#1515
0i
#1516
#1517
#1518
#1519
#1520
b011000 U
b011001 V
1i
#1521
#1522
#1523
#1524
#1525
0i
#1526
#1527
#1528
#1529
#1530
b011001 U
b011010 V
1i
#1531
#1532
#1533
#1534
#1535
0i
#1536
#1537
#1538
#1539
#1540
b011010 U
b011011 V
1i
#1541
#1542
#1543
#1544
#1545
0i
#1546
#1547
#1548
#1549
#1550
b011011 U
b011100 V
1i
#1551
#1552
#1553
#1554
#1555
0i
#1556
#1557
#1558
#1559
#1560
b011100 U
b011101 V
1i
#1561
#1562
#1563
#1564
#1565
0i
#1566
#1567
#1568
#1569
#1570
b011101 U
b011110 V
1i
#1571
#1572
#1573
#1574
#1575
0i
#1576
#1577
#1578
#1579
#1580
b011110 U
b011111 V
1i
#1581
#1582
#1583
#1584
#1585
0i
#1586
#1587
#1588
#1589
#1590
b011111 U
b100000 V
1i
#1591
#1592
#1593
#1594
#1595
0i
#1596
#1597
#1598
#1599
#1600
b100000 U
b100001 V
1i
#1601
#1602
#1603
#1604
#1605
0i
#1606
#1607
#1608
#1609
#1610
b100001 U
b100010 V
1i
#1611
#1612
#1613
#1614
#1615
0i
#1616
#1617
#1618
#1619
#1620
b100010 U
b100011 V
1i
#1621
#1622
#1623
#1624
#1625
0i
#1626
#1627
#1628
#1629
#1630
b100011 U
b100100 V
1i
#1631
#1632
#1633
#1634
#1635
0i
#1636
#1637
#1638
#1639
#1640
b100100 U
b100101 V
1i
#1641
#1642
#1643
#1644
#1645
0i
#1646
#1647
#1648
#1649
#1650
b100101 U
b100110 V
1i
#1651
#1652
#1653
#1654
#1655
0i
#1656
#1657
#1658
#1659
#1660
b100110 U
b100111 V
1i
#1661
#1662
#1663
#1664
#1665
0i
#1666
#1667
#1668
#1669
#1670
b100111 U
b101000 V
1i
#1671
#1672
#1673
#1674
#1675
0i
#1676
#1677
#1678
#1679
#1680
b101000 U
b101001 V
1i
#1681
#1682
#1683
#1684
#1685
0i
#1686
#1687
#1688
#1689
#1690
b101001 U
b101010 V
1i
#1691
#1692
#1693
#1694
#1695
0i
#1696
#1697
#1698
#1699
#1700
b101010 U
b101011 V
1i
#1701
#1702
#1703
#1704
#1705
0i
#1706
#1707
#1708
#1709
#1710
b101011 U
b101100 V
1i
#1711
#1712
#1713
#1714
#1715
0i
#1716
#1717
#1718
#1719
#1720
b101100 U
b101101 V
1i
#1721
#1722
#1723
#1724
#1725
0i
#1726
#1727
#1728
#1729
#1730
b101101 U
b101110 V
1i
#1731
#1732
#1733
#1734
#1735
0i
#1736
#1737
#1738
#1739
#1740
b101110 U
b101111 V
1i
#1741
#1742
#1743
#1744
