FMA_32_pipelined/mul24_tb.vcd
$date
	Sat Dec  9 19:40:50 2023
$end
$version
	Icarus Verilog
$end
$timescale
	1s
$end
$scope module mul24_tb $end
$var wire 48 ! out [47:0] $end
$var reg 24 " a [23:0] $end
$var reg 24 # b [23:0] $end
$var reg 48 $ expected_out [47:0] $end
$var integer 32 % errors [31:0] $end
$scope module uut $end
$var wire 24 & a [23:0] $end
$var wire 24 ' b [23:0] $end
$var wire 48 ( out [47:0] $end
$scope module booth4_encoding $end
$var wire 24 ) a [23:0] $end
$var wire 3 * code [2:0] $end
$var wire 5 + shift [4:0] $end
$var wire 48 , two [47:0] $end
$var wire 48 - one [47:0] $end
$var wire 48 . minus_two [47:0] $end
$var wire 48 / minus_one [47:0] $end
$var reg 48 0 partial_product [47:0] $end
$upscope $end
$scope module booth4_encoding10 $end
$var wire 24 1 a [23:0] $end
$var wire 3 2 code [2:0] $end
$var wire 5 3 shift [4:0] $end
$var wire 48 4 two [47:0] $end
$var wire 48 5 one [47:0] $end
$var wire 48 6 minus_two [47:0] $end
$var wire 48 7 minus_one [47:0] $end
$var reg 48 8 partial_product [47:0] $end
$upscope $end
$scope module booth4_encoding11 $end
$var wire 24 9 a [23:0] $end
$var wire 3 : code [2:0] $end
$var wire 5 ; shift [4:0] $end
$var wire 48 < two [47:0] $end
$var wire 48 = one [47:0] $end
$var wire 48 > minus_two [47:0] $end
$var wire 48 ? minus_one [47:0] $end
$var reg 48 @ partial_product [47:0] $end
$upscope $end
$scope module booth4_encoding12 $end
$var wire 24 A a [23:0] $end
$var wire 3 B code [2:0] $end
$var wire 5 C shift [4:0] $end
$var wire 48 D two [47:0] $end
$var wire 48 E one [47:0] $end
$var wire 48 F minus_two [47:0] $end
$var wire 48 G minus_one [47:0] $end
$var reg 48 H partial_product [47:0] $end
$upscope $end
$scope module booth4_encoding2 $end
$var wire 24 I a [23:0] $end
$var wire 3 J code [2:0] $end
$var wire 5 K shift [4:0] $end
$var wire 48 L two [47:0] $end
$var wire 48 M one [47:0] $end
$var wire 48 N minus_two [47:0] $end
$var wire 48 O minus_one [47:0] $end
$var reg 48 P partial_product [47:0] $end
$upscope $end
$scope module booth4_encoding3 $end
$var wire 24 Q a [23:0] $end
$var wire 3 R code [2:0] $end
$var wire 5 S shift [4:0] $end
$var wire 48 T two [47:0] $end
$var wire 48 U one [47:0] $end
$var wire 48 V minus_two [47:0] $end
$var wire 48 W minus_one [47:0] $end
$var reg 48 X partial_product [47:0] $end
$upscope $end
$scope module booth4_encoding4 $end
$var wire 24 Y a [23:0] $end
$var wire 3 Z code [2:0] $end
$var wire 5 [ shift [4:0] $end
$var wire 48 \ two [47:0] $end
$var wire 48 ] one [47:0] $end
$var wire 48 ^ minus_two [47:0] $end
$var wire 48 _ minus_one [47:0] $end
$var reg 48 ` partial_product [47:0] $end
$upscope $end
$scope module booth4_encoding5 $end
$var wire 24 a a [23:0] $end
$var wire 3 b code [2:0] $end
$var wire 5 c shift [4:0] $end
$var wire 48 d two [47:0] $end
$var wire 48 e one [47:0] $end
$var wire 48 f minus_two [47:0] $end
$var wire 48 g minus_one [47:0] $end
$var reg 48 h partial_product [47:0] $end
$upscope $end
$scope module booth4_encoding6 $end
$var wire 24 i a [23:0] $end
$var wire 3 j code [2:0] $end
$var wire 5 k shift [4:0] $end
$var wire 48 l two [47:0] $end
$var wire 48 m one [47:0] $end
$var wire 48 n minus_two [47:0] $end
$var wire 48 o minus_one [47:0] $end
$var reg 48 p partial_product [47:0] $end
$upscope $end
$scope module booth4_encoding7 $end
$var wire 24 q a [23:0] $end
$var wire 3 r code [2:0] $end
$var wire 5 s shift [4:0] $end
$var wire 48 t two [47:0] $end
$var wire 48 u one [47:0] $end
$var wire 48 v minus_two [47:0] $end
$var wire 48 w minus_one [47:0] $end
$var reg 48 x partial_product [47:0] $end
$upscope $end
$scope module booth4_encoding8 $end
$var wire 24 y a [23:0] $end
$var wire 3 z code [2:0] $end
$var wire 5 { shift [4:0] $end
$var wire 48 | two [47:0] $end
$var wire 48 } one [47:0] $end
$var wire 48 ~ minus_two [47:0] $end
$var wire 48 !" minus_one [47:0] $end
$var reg 48 "" partial_product [47:0] $end
$upscope $end
$scope module booth4_encoding9 $end
$var wire 24 #" a [23:0] $end
$var wire 3 $" code [2:0] $end
$var wire 5 %" shift [4:0] $end
$var wire 48 &" two [47:0] $end
$var wire 48 '" one [47:0] $end
$var wire 48 (" minus_two [47:0] $end
$var wire 48 )" minus_one [47:0] $end
$var reg 48 *" partial_product [47:0] $end
$upscope $end
$upscope $end
$scope task check_mul $end
$var reg 24 +" in_a [23:0] $end
$var reg 24 ," in_b [23:0] $end
$upscope $end
$upscope $end
$enddefinitions $end
$comment Show the parameter values. $end
$dumpall
$end
#0
$dumpvars
b100010010101111010000001 ,"
b101010011010100100100 +"
b1010100110101001001000000000000000000 *"
b111111111111111111111111111010101100101011011100 )"
b111111111111111111111111110101011001010110111000 ("
b101010011010100100100 '"
b1010100110101001001000 &"
b10000 %"
b10 $"
b101010011010100100100 #"
b10101001101010010010000000000000000 ""
b111111111111111111111111111010101100101011011100 !"
b111111111111111111111111110101011001010110111000 ~
b101010011010100100100 }
b1010100110101001001000 |
b1110 {
b10 z
b101010011010100100100 y
b1010100110101001001000000000000000 x
b111111111111111111111111111010101100101011011100 w
b111111111111111111111111110101011001010110111000 v
b101010011010100100100 u
b1010100110101001001000 t
b1100 s
b11 r
b101010011010100100100 q
b0 p
b111111111111111111111111111010101100101011011100 o
b111111111111111111111111110101011001010110111000 n
b101010011010100100100 m
b1010100110101001001000 l
b1010 k
b111 j
b101010011010100100100 i
b111111111111111111101010110010101101110000000000 h
b111111111111111111111111111010101100101011011100 g
b111111111111111111111111110101011001010110111000 f
b101010011010100100100 e
b1010100110101001001000 d
b1000 c
b101 b
b101010011010100100100 a
b111111111111111111110101011001010110111000000000 `
b111111111111111111111111111010101100101011011100 _
b111111111111111111111111110101011001010110111000 ^
b101010011010100100100 ]
b1010100110101001001000 \
b110 [
b100 Z
b101010011010100100100 Y
b0 X
b111111111111111111111111111010101100101011011100 W
b111111111111111111111111110101011001010110111000 V
b101010011010100100100 U
b1010100110101001001000 T
b100 S
b0 R
b101010011010100100100 Q
b0 P
b111111111111111111111111111010101100101011011100 O
b111111111111111111111111110101011001010110111000 N
b101010011010100100100 M
b1010100110101001001000 L
b10 K
b0 J
b101010011010100100100 I
b111101010110010101101110000000000000000000000000 H
b111111111111111111111111111010101100101011011100 G
b111111111111111111111111110101011001010110111000 F
b101010011010100100100 E
b1010100110101001001000 D
b10110 C
b100 B
b101010011010100100100 A
b10101001101010010010000000000000000000000 @
b111111111111111111111111111010101100101011011100 ?
b111111111111111111111111110101011001010110111000 >
b101010011010100100100 =
b1010100110101001001000 <
b10100 ;
b1 :
b101010011010100100100 9
b111111110101011001010110111000000000000000000000 8
b111111111111111111111111111010101100101011011100 7
b111111111111111111111111110101011001010110111000 6
b101010011010100100100 5
b1010100110101001001000 4
b10010 3
b100 2
b101010011010100100100 1
b101010011010100100100 0
b111111111111111111111111111010101100101011011100 /
b111111111111111111111111110101011001010110111000 .
b101010011010100100100 -
b1010100110101001001000 ,
b0 +
b10 *
b101010011010100100100 )
b111101100010110000100000011101101111111100100100 (
b100010010101111010000001 '
b101010011010100100100 &
b0 %
b111101100010110000100000011101101111111100100100 $
b100010010101111010000001 #
b101010011010100100100 "
b111101100010110000100000011101101111111100100100 !
$end
#10
b11110110010100111110111 /
b111101100101001111101110 .
b11110110010100111110111 0
b11110110010100111110111 7
b111101100101001111101110 6
b0 8
b11110110010100111110111 ?
b111101100101001111101110 >
b1111011001010011111011100000000000000000000 @
b11110110010100111110111 G
b111101100101001111101110 F
b0 H
b11110110010100111110111 O
b111101100101001111101110 N
b111111111111111111111110000100110101100000100100 P
b11110110010100111110111 W
b111101100101001111101110 V
b1111011001010011111011100000 X
b11110110010100111110111 _
b111101100101001111101110 ^
b111111111111111111000010011010110000010010000000 `
b11110110010100111110111 g
b111101100101001111101110 f
b11110110010100111110111000000000 h
b11110110010100111110111 o
b111101100101001111101110 n
b111111111111110000100110101100000100100000000000 p
b11110110010100111110111 w
b111101100101001111101110 v
b111111111111100001001101011000001001000000000000 x
b11110110010100111110111 !"
b111101100101001111101110 ~
b111111111110000100110101100000100100000000000000 ""
b11110110010100111110111 )"
b111101100101001111101110 ("
b1111000100100001111101101011100101101111011 !
b1111000100100001111101101011100101101111011 (
b0 *"
b110 *
b1 J
b100 R
b11 Z
b100 b
b11 j
b10 r
b0 $"
b0 2
b110 :
b111 B
b111111111111111111111111100001001101011000001001 -
b111111111111111111111111000010011010110000010010 ,
b111111111111111111111111100001001101011000001001 5
b111111111111111111111111000010011010110000010010 4
b111111111111111111111111100001001101011000001001 =
b111111111111111111111111000010011010110000010010 <
b111111111111111111111111100001001101011000001001 E
b111111111111111111111111000010011010110000010010 D
b111111111111111111111111100001001101011000001001 M
b111111111111111111111111000010011010110000010010 L
b111111111111111111111111100001001101011000001001 U
b111111111111111111111111000010011010110000010010 T
b111111111111111111111111100001001101011000001001 ]
b111111111111111111111111000010011010110000010010 \
b111111111111111111111111100001001101011000001001 e
b111111111111111111111111000010011010110000010010 d
b111111111111111111111111100001001101011000001001 m
b111111111111111111111111000010011010110000010010 l
b111111111111111111111111100001001101011000001001 u
b111111111111111111111111000010011010110000010010 t
b111111111111111111111111100001001101011000001001 }
b111111111111111111111111000010011010110000010010 |
b111111111111111111111111100001001101011000001001 '"
b111111111111111111111111000010011010110000010010 &"
b1111000100100001111101101011100101101111011 $
b111100000101011001100011 #
b111100000101011001100011 '
b100001001101011000001001 "
b100001001101011000001001 &
b100001001101011000001001 )
b100001001101011000001001 1
b100001001101011000001001 9
b100001001101011000001001 A
b100001001101011000001001 I
b100001001101011000001001 Q
b100001001101011000001001 Y
b100001001101011000001001 a
b100001001101011000001001 i
b100001001101011000001001 q
b100001001101011000001001 y
b100001001101011000001001 #"
b111100000101011001100011 ,"
b100001001101011000001001 +"
#20
b10001101000010011110011 /
b100011010000100111100110 .
b111111111111111111111111101110010111101100001101 0
b10001101000010011110011 7
b100011010000100111100110 6
b10001101000010011110011 ?
b100011010000100111100110 >
b111101110010111101100001101000000000000000000000 @
b10001101000010011110011 G
b100011010000100111100110 F
b100011010000100111100110000000000000000000000 H
b10001101000010011110011 O
b100011010000100111100110 N
b1000110100001001111001100 P
b10001101000010011110011 W
b100011010000100111100110 V
b111111111111111111111011100101111011000011010000 X
b10001101000010011110011 _
b100011010000100111100110 ^
b100011010000100111100110000000 `
b10001101000010011110011 g
b100011010000100111100110 f
b111111111111111101110010111101100001101000000000 h
b10001101000010011110011 o
b100011010000100111100110 n
b1000110100001001111001100000000000 p
b10001101000010011110011 w
b100011010000100111100110 v
b111111111111011100101111011000011010000000000000 x
b10001101000010011110011 !"
b100011010000100111100110 ~
b10001110110011010111000001101000101100101001 !
b10001110110011010111000001101000101100101001 (
b10001101000010011110011000000000000000 ""
b10001101000010011110011 )"
b100011010000100111100110 ("
b10 *
b110 J
b1 R
b100 Z
b11 b
b100 j
b11 r
b100 z
b111 $"
b111 2
b11 :
b110 B
b111111111111111111111111101110010111101100001101 -
b111111111111111111111111011100101111011000011010 ,
b111111111111111111111111101110010111101100001101 5
b111111111111111111111111011100101111011000011010 4
b111111111111111111111111101110010111101100001101 =
b111111111111111111111111011100101111011000011010 <
b111111111111111111111111101110010111101100001101 E
b111111111111111111111111011100101111011000011010 D
b111111111111111111111111101110010111101100001101 M
b111111111111111111111111011100101111011000011010 L
b111111111111111111111111101110010111101100001101 U
b111111111111111111111111011100101111011000011010 T
b111111111111111111111111101110010111101100001101 ]
b111111111111111111111111011100101111011000011010 \
b111111111111111111111111101110010111101100001101 e
b111111111111111111111111011100101111011000011010 d
b111111111111111111111111101110010111101100001101 m
b111111111111111111111111011100101111011000011010 l
b111111111111111111111111101110010111101100001101 u
b111111111111111111111111011100101111011000011010 t
b111111111111111111111111101110010111101100001101 }
b111111111111111111111111011100101111011000011010 |
b111111111111111111111111101110010111101100001101 '"
b111111111111111111111111011100101111011000011010 &"
b10001110110011010111000001101000101100101001 $
b110111111001100110001101 #
b110111111001100110001101 '
b101110010111101100001101 "
b101110010111101100001101 &
b101110010111101100001101 )
b101110010111101100001101 1
b101110010111101100001101 9
b101110010111101100001101 A
b101110010111101100001101 I
b101110010111101100001101 Q
b101110010111101100001101 Y
b101110010111101100001101 a
b101110010111101100001101 i
b101110010111101100001101 q
b101110010111101100001101 y
b101110010111101100001101 #"
b110111111001100110001101 ,"
b101110010111101100001101 +"
#30
b1111010111101110011011 /
b11110101111011100110110 .
b11110101111011100110110 0
b1111010111101110011011 7
b11110101111011100110110 6
b111111100001010000100011001010000000000000000000 8
b1111010111101110011011 ?
b11110101111011100110110 >
b111101011110111001101100000000000000000000 @
b1111010111101110011011 G
b11110101111011100110110 F
b111100001010000100011001010000000000000000000000 H
b1111010111101110011011 O
b11110101111011100110110 N
b111111111111111111111111000010100001000110010100 P
b1111010111101110011011 W
b11110101111011100110110 V
b111111111111111111111100001010000100011001010000 X
b1111010111101110011011 _
b11110101111011100110110 ^
b0 `
b1111010111101110011011 g
b11110101111011100110110 f
b1111010111101110011011000000000 h
b1111010111101110011011 o
b11110101111011100110110 n
b111111111111111100001010000100011001010000000000 p
b1111010111101110011011 w
b11110101111011100110110 v
b111111111111110000101000010001100101000000000000 x
b1111010111101110011011 !"
b11110101111011100110110 ~
b111111111111000010100001000110010100000000000000 ""
b1111010111101110011011 )"
b11110101111011100110110 ("
b111100101011011010111011110010001010100100011010 !
b111100101011011010111011110010001010100100011010 (
b11110101111011100110110000000000000000 *"
b100 *
b1 J
b10 R
b0 Z
b100 b
b1 j
b10 r
b10 z
b110 $"
b11 2
b110 :
b1 B
b111111111111111111111111110000101000010001100101 -
b111111111111111111111111100001010000100011001010 ,
b111111111111111111111111110000101000010001100101 5
b111111111111111111111111100001010000100011001010 4
b111111111111111111111111110000101000010001100101 =
b111111111111111111111111100001010000100011001010 <
b111111111111111111111111110000101000010001100101 E
b111111111111111111111111100001010000100011001010 D
b111111111111111111111111110000101000010001100101 M
b111111111111111111111111100001010000100011001010 L
b111111111111111111111111110000101000010001100101 U
b111111111111111111111111100001010000100011001010 T
b111111111111111111111111110000101000010001100101 ]
b111111111111111111111111100001010000100011001010 \
b111111111111111111111111110000101000010001100101 e
b111111111111111111111111100001010000100011001010 d
b111111111111111111111111110000101000010001100101 m
b111111111111111111111111100001010000100011001010 l
b111111111111111111111111110000101000010001100101 u
b111111111111111111111111100001010000100011001010 t
b111111111111111111111111110000101000010001100101 }
b111111111111111111111111100001010000100011001010 |
b111111111111111111111111110000101000010001100101 '"
b111111111111111111111111100001010000100011001010 &"
b111100101011011010111011110010001010100100011010 $
b1101110101001000010010 #
b1101110101001000010010 '
b110000101000010001100101 "
b110000101000010001100101 &
b110000101000010001100101 )
b110000101000010001100101 1
b110000101000010001100101 9
b110000101000010001100101 A
b110000101000010001100101 I
b110000101000010001100101 Q
b110000101000010001100101 Y
b110000101000010001100101 a
b110000101000010001100101 i
b110000101000010001100101 q
b110000101000010001100101 y
b110000101000010001100101 #"
b1101110101001000010010 ,"
b110000101000010001100101 +"
#40
b11000001110011111111 /
b110000011100111111110 .
b111111111111111111111111111100111110001100000001 0
b11000001110011111111 7
b110000011100111111110 6
b111111111001111100011000000010000000000000000000 8
b11000001110011111111 ?
b110000011100111111110 >
b111111110011111000110000000100000000000000000000 @
b11000001110011111111 G
b110000011100111111110 F
b110000011100111111110000000000000000000000 H
b11000001110011111111 O
b110000011100111111110 N
b1100000111001111111100 P
b11000001110011111111 W
b110000011100111111110 V
b111111111111111111111111001111100011000000010000 X
b11000001110011111111 _
b110000011100111111110 ^
b11000001110011111111 g
b110000011100111111110 f
b111111111111111111110011111000110000000100000000 h
b11000001110011111111 o
b110000011100111111110 n
b110000011100111111110000000000 p
b11000001110011111111 w
b110000011100111111110 v
b111111111111111100111110001100000001000000000000 x
b11000001110011111111 !"
b110000011100111111110 ~
b1100000111001111111100000000000000 ""
b11000001110011111111 )"
b110000011100111111110 ("
b11110011011110001000000010101010000001101 !
b11110011011110001000000010101010000001101 (
b0 *"
b10 *
b110 J
b1 R
b10 b
b110 j
b1 r
b110 z
b111 $"
b10 :
b110 B
b111111111111111111111111111100111110001100000001 -
b111111111111111111111111111001111100011000000010 ,
b111111111111111111111111111100111110001100000001 5
b111111111111111111111111111001111100011000000010 4
b111111111111111111111111111100111110001100000001 =
b111111111111111111111111111001111100011000000010 <
b111111111111111111111111111100111110001100000001 E
b111111111111111111111111111001111100011000000010 D
b111111111111111111111111111100111110001100000001 M
b111111111111111111111111111001111100011000000010 L
b111111111111111111111111111100111110001100000001 U
b111111111111111111111111111001111100011000000010 T
b111111111111111111111111111100111110001100000001 ]
b111111111111111111111111111001111100011000000010 \
b111111111111111111111111111100111110001100000001 e
b111111111111111111111111111001111100011000000010 d
b111111111111111111111111111100111110001100000001 m
b111111111111111111111111111001111100011000000010 l
b111111111111111111111111111100111110001100000001 u
b111111111111111111111111111001111100011000000010 t
b111111111111111111111111111100111110001100000001 }
b111111111111111111111111111001111100011000000010 |
b111111111111111111111111111100111110001100000001 '"
b111111111111111111111111111001111100011000000010 &"
b11110011011110001000000010101010000001101 $
b110101111100110100001101 #
b110101111100110100001101 '
b111100111110001100000001 "
b111100111110001100000001 &
b111100111110001100000001 )
b111100111110001100000001 1
b111100111110001100000001 9
b111100111110001100000001 A
b111100111110001100000001 I
b111100111110001100000001 Q
b111100111110001100000001 Y
b111100111110001100000001 a
b111100111110001100000001 i
b111100111110001100000001 q
b111100111110001100000001 y
b111100111110001100000001 #"
b110101111100110100001101 ,"
b111100111110001100000001 +"
#50
b111111111111111111111111011100000011101000101000 P
b111111111111111101110000001110100010100000000000 p
b111111111111011100000011101000101000000000000000 ""
b111111111111111111111111110111000000111010001010 /
b111111111111111111111111101110000001110100010100 .
b1000111111000101110110 0
b111111111111111111111111110111000000111010001010 7
b111111111111111111111111101110000001110100010100 6
b111111110111000000111010001010000000000000000000 8
b111111111111111111111111110111000000111010001010 ?
b111111111111111111111111101110000001110100010100 >
b100011111100010111011000000000000000000000 @
b111111111111111111111111110111000000111010001010 G
b111111111111111111111111101110000001110100010100 F
b111011100000011101000101000000000000000000000000 H
b111111111111111111111111110111000000111010001010 O
b111111111111111111111111101110000001110100010100 N
b111111111111111111111111110111000000111010001010 W
b111111111111111111111111101110000001110100010100 V
b0 X
b111111111111111111111111110111000000111010001010 _
b111111111111111111111111101110000001110100010100 ^
b1000111111000101110110000000 `
b111111111111111111111111110111000000111010001010 g
b111111111111111111111111101110000001110100010100 f
b100011111100010111011000000000 h
b111111111111111111111111110111000000111010001010 o
b111111111111111111111111101110000001110100010100 n
b111111111111111111111111110111000000111010001010 w
b111111111111111111111111101110000001110100010100 v
b1000111111000101110110000000000000 x
b111111111111111111111111110111000000111010001010 !"
b111111111111111111111111101110000001110100010100 ~
b111111111111111111111111110111000000111010001010 )"
b111111111111111111111111101110000001110100010100 ("
b111011111111011101011000111010100000011100011110 !
b111011111111011101011000111010100000011100011110 (
b100011111100010111011000000000000000000 *"
b111 R
b1 Z
b11 $"
b110 2
b1 :
b100 B
b1000111111000101110110 -
b10001111110001011101100 ,
b1000111111000101110110 5
b10001111110001011101100 4
b1000111111000101110110 =
b10001111110001011101100 <
b1000111111000101110110 E
b10001111110001011101100 D
b1000111111000101110110 M
b10001111110001011101100 L
b1000111111000101110110 U
b10001111110001011101100 T
b1000111111000101110110 ]
b10001111110001011101100 \
b1000111111000101110110 e
b10001111110001011101100 d
b1000111111000101110110 m
b10001111110001011101100 l
b1000111111000101110110 u
b10001111110001011101100 t
b1000111111000101110110 }
b10001111110001011101100 |
b1000111111000101110110 '"
b10001111110001011101100 &"
b111011111111011101011000111010100000011100011110 $
b100011011100110100111101 #
b100011011100110100111101 '
b1000111111000101110110 "
b1000111111000101110110 &
b1000111111000101110110 )
b1000111111000101110110 1
b1000111111000101110110 9
b1000111111000101110110 A
b1000111111000101110110 I
b1000111111000101110110 Q
b1000111111000101110110 Y
b1000111111000101110110 a
b1000111111000101110110 i
b1000111111000101110110 q
b1000111111000101110110 y
b1000111111000101110110 #"
b100011011100110100111101 ,"
b1000111111000101110110 +"
#60
b1010111010100000010011000000000000000000 8
b101011101010000001001100 P
b1010111010100000010011 /
b10101110101000000100110 .
b0 0
b1010111010100000010011 7
b10101110101000000100110 6
b1010111010100000010011 ?
b10101110101000000100110 >
b101011101010000001001100000000000000000000 @
b1010111010100000010011 G
b10101110101000000100110 F
b111101010001010111111011010000000000000000000000 H
b1010111010100000010011 O
b10101110101000000100110 N
b1010111010100000010011 W
b10101110101000000100110 V
b111111111111111111111101010001010111111011010000 X
b1010111010100000010011 _
b10101110101000000100110 ^
b10101110101000000100110000000 `
b1010111010100000010011 g
b10101110101000000100110 f
b0 h
b1010111010100000010011 o
b10101110101000000100110 n
b111111111111111010100010101111110110100000000000 p
b1010111010100000010011 w
b10101110101000000100110 v
b1010111010100000010011000000000000 x
b1010111010100000010011 !"
b10101110101000000100110 ~
b0 ""
b1010111010100000010011 )"
b10101110101000000100110 ("
b111110000010100100111101100111101100000010011100 !
b111110000010100100111101100111101100000010011100 (
b111111111010100010101111110110100000000000000000 *"
b0 *
b1 R
b100 Z
b111 b
b11 j
b110 r
b111 z
b101 :
b1 B
b111111111111111111111111110101000101011111101101 -
b111111111111111111111111101010001010111111011010 ,
b111111111111111111111111110101000101011111101101 5
b111111111111111111111111101010001010111111011010 4
b111111111111111111111111110101000101011111101101 =
b111111111111111111111111101010001010111111011010 <
b111111111111111111111111110101000101011111101101 E
b111111111111111111111111101010001010111111011010 D
b111111111111111111111111110101000101011111101101 M
b111111111111111111111111101010001010111111011010 L
b111111111111111111111111110101000101011111101101 U
b111111111111111111111111101010001010111111011010 T
b111111111111111111111111110101000101011111101101 ]
b111111111111111111111111101010001010111111011010 \
b111111111111111111111111110101000101011111101101 e
b111111111111111111111111101010001010111111011010 d
b111111111111111111111111110101000101011111101101 m
b111111111111111111111111101010001010111111011010 l
b111111111111111111111111110101000101011111101101 u
b111111111111111111111111101010001010111111011010 t
b111111111111111111111111110101000101011111101101 }
b111111111111111111111111101010001010111111011010 |
b111111111111111111111111110101000101011111101101 '"
b111111111111111111111111101010001010111111011010 &"
b111110000010100100111101100111101100000010011100 $
b1011011111011110001100 #
b1011011111011110001100 '
b110101000101011111101101 "
b110101000101011111101101 &
b110101000101011111101101 )
b110101000101011111101101 1
b110101000101011111101101 9
b110101000101011111101101 A
b110101000101011111101101 I
b110101000101011111101101 Q
b110101000101011111101101 Y
b110101000101011111101101 a
b110101000101011111101101 i
b110101000101011111101101 q
b110101000101011111101101 y
b110101000101011111101101 #"
b1011011111011110001100 ,"
b110101000101011111101101 +"
#70
b10000101100000011100000000000000000000 @
b100001011000000111 /
b1000010110000001110 .
b1000010110000001110 0
b100001011000000111 7
b1000010110000001110 6
b111111111110111101001111110010000000000000000000 8
b100001011000000111 ?
b1000010110000001110 >
b100001011000000111 G
b1000010110000001110 F
b111111110111101001111110010000000000000000000000 H
b100001011000000111 O
b1000010110000001110 N
b111111111111111111111111111011110100111111001000 P
b100001011000000111 W
b1000010110000001110 V
b0 X
b100001011000000111 _
b1000010110000001110 ^
b100001011000000111000000 `
b100001011000000111 g
b1000010110000001110 f
b111111111111111111111101111010011111100100000000 h
b100001011000000111 o
b1000010110000001110 n
b111111111111111111110111101001111110010000000000 p
b100001011000000111 w
b1000010110000001110 v
b1000010110000001110000000000000 x
b100001011000000111 !"
b1000010110000001110 ~
b111111111111111101111010011111100100000000000000 ""
b100001011000000111 )"
b1000010110000001110 ("
b111111111000110011110111110010001111101010010110 !
b111111111000110011110111110010001111101010010110 (
b1000010110000001110000000000000000 *"
b100 *
b11 J
b0 R
b110 Z
b1 b
b10 j
b100 r
b1 z
b110 $"
b11 2
b110 :
b111111111111111111111111111111011110100111111001 -
b111111111111111111111111111110111101001111110010 ,
b111111111111111111111111111111011110100111111001 5
b111111111111111111111111111110111101001111110010 4
b111111111111111111111111111111011110100111111001 =
b111111111111111111111111111110111101001111110010 <
b111111111111111111111111111111011110100111111001 E
b111111111111111111111111111110111101001111110010 D
b111111111111111111111111111111011110100111111001 M
b111111111111111111111111111110111101001111110010 L
b111111111111111111111111111111011110100111111001 U
b111111111111111111111111111110111101001111110010 T
b111111111111111111111111111111011110100111111001 ]
b111111111111111111111111111110111101001111110010 \
b111111111111111111111111111111011110100111111001 e
b111111111111111111111111111110111101001111110010 d
b111111111111111111111111111111011110100111111001 m
b111111111111111111111111111110111101001111110010 l
b111111111111111111111111111111011110100111111001 u
b111111111111111111111111111110111101001111110010 t
b111111111111111111111111111111011110100111111001 }
b111111111111111111111111111110111101001111110010 |
b111111111111111111111111111111011110100111111001 '"
b111111111111111111111111111110111101001111110010 &"
b111111111000110011110111110010001111101010010110 $
b1101110010010011000110 #
b1101110010010011000110 '
b111111011110100111111001 "
b111111011110100111111001 &
b111111011110100111111001 )
b111111011110100111111001 1
b111111011110100111111001 9
b111111011110100111111001 A
b111111011110100111111001 I
b111111011110100111111001 Q
b111111011110100111111001 Y
b111111011110100111111001 a
b111111011110100111111001 i
b111111011110100111111001 q
b111111011110100111111001 y
b111111011110100111111001 #"
b1101110010010011000110 ,"
b111111011110100111111001 +"
#80
b100001111011001110110 0
b10000111101100111011000000 `
b10000111101100111011 /
b100001111011001110110 .
b10000111101100111011 7
b100001111011001110110 6
b111111111101111000010011000101000000000000000000 8
b10000111101100111011 ?
b100001111011001110110 >
b111111110111100001001100010100000000000000000000 @
b10000111101100111011 G
b100001111011001110110 F
b0 H
b10000111101100111011 O
b100001111011001110110 N
b1000011110110011101100 P
b10000111101100111011 W
b100001111011001110110 V
b100001111011001110110000 X
b10000111101100111011 _
b100001111011001110110 ^
b10000111101100111011 g
b100001111011001110110 f
b1000011110110011101100000000 h
b10000111101100111011 o
b100001111011001110110 n
b111111111111111111011110000100110001010000000000 p
b10000111101100111011 w
b100001111011001110110 v
b111111111111111101111000010011000101000000000000 x
b10000111101100111011 !"
b100001111011001110110 ~
b1000011110110011101100000000000000 ""
b10000111101100111011 )"
b100001111011001110110 ("
b111111110101011111011111111001101100010011010010 !
b111111110101011111011111111001101100010011010010 (
b0 *"
b101 J
b101 R
b101 Z
b101 b
b1 j
b10 r
b110 z
b111 $"
b1 2
b10 :
b0 B
b111111111111111111111111111101111000010011000101 -
b111111111111111111111111111011110000100110001010 ,
b111111111111111111111111111101111000010011000101 5
b111111111111111111111111111011110000100110001010 4
b111111111111111111111111111101111000010011000101 =
b111111111111111111111111111011110000100110001010 <
b111111111111111111111111111101111000010011000101 E
b111111111111111111111111111011110000100110001010 D
b111111111111111111111111111101111000010011000101 M
b111111111111111111111111111011110000100110001010 L
b111111111111111111111111111101111000010011000101 U
b111111111111111111111111111011110000100110001010 T
b111111111111111111111111111101111000010011000101 ]
b111111111111111111111111111011110000100110001010 \
b111111111111111111111111111101111000010011000101 e
b111111111111111111111111111011110000100110001010 d
b111111111111111111111111111101111000010011000101 m
b111111111111111111111111111011110000100110001010 l
b111111111111111111111111111101111000010011000101 u
b111111111111111111111111111011110000100110001010 t
b111111111111111111111111111101111000010011000101 }
b111111111111111111111111111011110000100110001010 |
b111111111111111111111111111101111000010011000101 '"
b111111111111111111111111111011110000100110001010 &"
b111111110101011111011111111001101100010011010010 $
b100111101001010101010 #
b100111101001010101010 '
b111101111000010011000101 "
b111101111000010011000101 &
b111101111000010011000101 )
b111101111000010011000101 1
b111101111000010011000101 9
b111101111000010011000101 A
b111101111000010011000101 I
b111101111000010011000101 Q
b111101111000010011000101 Y
b111101111000010011000101 a
b111101111000010011000101 i
b111101111000010011000101 q
b111101111000010011000101 y
b111101111000010011000101 #"
b100111101001010101010 ,"
b111101111000010011000101 +"
